<mxfile host="app.diagrams.net" modified="2024-06-02T20:15:11.304Z" agent="Mozilla/5.0 (Windows NT 10.0; Win64; x64; rv:127.0) Gecko/20100101 Firefox/127.0" etag="lURukJLk2wh6RNf3GfX3" version="24.4.10" type="gitlab" pages="11">
  <diagram name="DB/App Structure" id="6WDBpsA2SKVOJ4SoM3DD">
    <mxGraphModel dx="2190" dy="737" grid="1" gridSize="10" guides="1" tooltips="1" connect="1" arrows="1" fold="1" page="1" pageScale="1" pageWidth="827" pageHeight="1169" math="0" shadow="0">
      <root>
        <mxCell id="0" />
        <mxCell id="1" parent="0" />
        <mxCell id="sw2l6CSHloR5Nsp51yvF-1" value="users" style="swimlane;fontStyle=0;childLayout=stackLayout;horizontal=1;startSize=26;fillColor=#bac8d3;horizontalStack=0;resizeParent=1;resizeParentMax=0;resizeLast=0;collapsible=1;marginBottom=0;whiteSpace=wrap;html=1;strokeColor=#23445d;" parent="1" vertex="1">
          <mxGeometry x="200" y="210" width="140" height="286" as="geometry" />
        </mxCell>
        <mxCell id="sw2l6CSHloR5Nsp51yvF-2" value="id" style="text;strokeColor=#23445d;fillColor=#bac8d3;align=left;verticalAlign=top;spacingLeft=4;spacingRight=4;overflow=hidden;rotatable=0;points=[[0,0.5],[1,0.5]];portConstraint=eastwest;whiteSpace=wrap;html=1;" parent="sw2l6CSHloR5Nsp51yvF-1" vertex="1">
          <mxGeometry y="26" width="140" height="26" as="geometry" />
        </mxCell>
        <mxCell id="sw2l6CSHloR5Nsp51yvF-8" value="name" style="text;strokeColor=#23445d;fillColor=#bac8d3;align=left;verticalAlign=top;spacingLeft=4;spacingRight=4;overflow=hidden;rotatable=0;points=[[0,0.5],[1,0.5]];portConstraint=eastwest;whiteSpace=wrap;html=1;" parent="sw2l6CSHloR5Nsp51yvF-1" vertex="1">
          <mxGeometry y="52" width="140" height="26" as="geometry" />
        </mxCell>
        <mxCell id="sw2l6CSHloR5Nsp51yvF-3" value="alias" style="text;strokeColor=#23445d;fillColor=#bac8d3;align=left;verticalAlign=top;spacingLeft=4;spacingRight=4;overflow=hidden;rotatable=0;points=[[0,0.5],[1,0.5]];portConstraint=eastwest;whiteSpace=wrap;html=1;" parent="sw2l6CSHloR5Nsp51yvF-1" vertex="1">
          <mxGeometry y="78" width="140" height="26" as="geometry" />
        </mxCell>
        <mxCell id="sw2l6CSHloR5Nsp51yvF-4" value="email" style="text;strokeColor=#23445d;fillColor=#bac8d3;align=left;verticalAlign=top;spacingLeft=4;spacingRight=4;overflow=hidden;rotatable=0;points=[[0,0.5],[1,0.5]];portConstraint=eastwest;whiteSpace=wrap;html=1;" parent="sw2l6CSHloR5Nsp51yvF-1" vertex="1">
          <mxGeometry y="104" width="140" height="26" as="geometry" />
        </mxCell>
        <mxCell id="sw2l6CSHloR5Nsp51yvF-5" value="emai_verified_at" style="text;strokeColor=#23445d;fillColor=#bac8d3;align=left;verticalAlign=top;spacingLeft=4;spacingRight=4;overflow=hidden;rotatable=0;points=[[0,0.5],[1,0.5]];portConstraint=eastwest;whiteSpace=wrap;html=1;" parent="sw2l6CSHloR5Nsp51yvF-1" vertex="1">
          <mxGeometry y="130" width="140" height="26" as="geometry" />
        </mxCell>
        <mxCell id="sw2l6CSHloR5Nsp51yvF-6" value="password" style="text;strokeColor=#23445d;fillColor=#bac8d3;align=left;verticalAlign=top;spacingLeft=4;spacingRight=4;overflow=hidden;rotatable=0;points=[[0,0.5],[1,0.5]];portConstraint=eastwest;whiteSpace=wrap;html=1;" parent="sw2l6CSHloR5Nsp51yvF-1" vertex="1">
          <mxGeometry y="156" width="140" height="26" as="geometry" />
        </mxCell>
        <mxCell id="sw2l6CSHloR5Nsp51yvF-11" value="timezone" style="text;strokeColor=#23445d;fillColor=#bac8d3;align=left;verticalAlign=top;spacingLeft=4;spacingRight=4;overflow=hidden;rotatable=0;points=[[0,0.5],[1,0.5]];portConstraint=eastwest;whiteSpace=wrap;html=1;" parent="sw2l6CSHloR5Nsp51yvF-1" vertex="1">
          <mxGeometry y="182" width="140" height="26" as="geometry" />
        </mxCell>
        <mxCell id="sw2l6CSHloR5Nsp51yvF-13" value="registered_at" style="text;strokeColor=#23445d;fillColor=#bac8d3;align=left;verticalAlign=top;spacingLeft=4;spacingRight=4;overflow=hidden;rotatable=0;points=[[0,0.5],[1,0.5]];portConstraint=eastwest;whiteSpace=wrap;html=1;" parent="sw2l6CSHloR5Nsp51yvF-1" vertex="1">
          <mxGeometry y="208" width="140" height="26" as="geometry" />
        </mxCell>
        <mxCell id="sw2l6CSHloR5Nsp51yvF-14" value="last_login" style="text;strokeColor=#23445d;fillColor=#bac8d3;align=left;verticalAlign=top;spacingLeft=4;spacingRight=4;overflow=hidden;rotatable=0;points=[[0,0.5],[1,0.5]];portConstraint=eastwest;whiteSpace=wrap;html=1;" parent="sw2l6CSHloR5Nsp51yvF-1" vertex="1">
          <mxGeometry y="234" width="140" height="26" as="geometry" />
        </mxCell>
        <mxCell id="sw2l6CSHloR5Nsp51yvF-7" value="tokens..." style="text;strokeColor=#23445d;fillColor=#bac8d3;align=left;verticalAlign=top;spacingLeft=4;spacingRight=4;overflow=hidden;rotatable=0;points=[[0,0.5],[1,0.5]];portConstraint=eastwest;whiteSpace=wrap;html=1;" parent="sw2l6CSHloR5Nsp51yvF-1" vertex="1">
          <mxGeometry y="260" width="140" height="26" as="geometry" />
        </mxCell>
        <mxCell id="sw2l6CSHloR5Nsp51yvF-15" value="article" style="swimlane;fontStyle=0;childLayout=stackLayout;horizontal=1;startSize=26;fillColor=#bac8d3;horizontalStack=0;resizeParent=1;resizeParentMax=0;resizeLast=0;collapsible=1;marginBottom=0;whiteSpace=wrap;html=1;strokeColor=#23445d;" parent="1" vertex="1">
          <mxGeometry x="350" y="210" width="140" height="364" as="geometry" />
        </mxCell>
        <mxCell id="sw2l6CSHloR5Nsp51yvF-16" value="id" style="text;strokeColor=#23445d;fillColor=#bac8d3;align=left;verticalAlign=top;spacingLeft=4;spacingRight=4;overflow=hidden;rotatable=0;points=[[0,0.5],[1,0.5]];portConstraint=eastwest;whiteSpace=wrap;html=1;" parent="sw2l6CSHloR5Nsp51yvF-15" vertex="1">
          <mxGeometry y="26" width="140" height="26" as="geometry" />
        </mxCell>
        <mxCell id="sw2l6CSHloR5Nsp51yvF-20" value="name" style="text;strokeColor=#23445d;fillColor=#bac8d3;align=left;verticalAlign=top;spacingLeft=4;spacingRight=4;overflow=hidden;rotatable=0;points=[[0,0.5],[1,0.5]];portConstraint=eastwest;whiteSpace=wrap;html=1;" parent="sw2l6CSHloR5Nsp51yvF-15" vertex="1">
          <mxGeometry y="52" width="140" height="26" as="geometry" />
        </mxCell>
        <mxCell id="sw2l6CSHloR5Nsp51yvF-18" value="title" style="text;strokeColor=#23445d;fillColor=#bac8d3;align=left;verticalAlign=top;spacingLeft=4;spacingRight=4;overflow=hidden;rotatable=0;points=[[0,0.5],[1,0.5]];portConstraint=eastwest;whiteSpace=wrap;html=1;" parent="sw2l6CSHloR5Nsp51yvF-15" vertex="1">
          <mxGeometry y="78" width="140" height="26" as="geometry" />
        </mxCell>
        <mxCell id="sw2l6CSHloR5Nsp51yvF-33" value="excerpt" style="text;strokeColor=#23445d;fillColor=#bac8d3;align=left;verticalAlign=top;spacingLeft=4;spacingRight=4;overflow=hidden;rotatable=0;points=[[0,0.5],[1,0.5]];portConstraint=eastwest;whiteSpace=wrap;html=1;" parent="sw2l6CSHloR5Nsp51yvF-15" vertex="1">
          <mxGeometry y="104" width="140" height="26" as="geometry" />
        </mxCell>
        <mxCell id="sw2l6CSHloR5Nsp51yvF-19" value="content" style="text;strokeColor=#23445d;fillColor=#bac8d3;align=left;verticalAlign=top;spacingLeft=4;spacingRight=4;overflow=hidden;rotatable=0;points=[[0,0.5],[1,0.5]];portConstraint=eastwest;whiteSpace=wrap;html=1;" parent="sw2l6CSHloR5Nsp51yvF-15" vertex="1">
          <mxGeometry y="130" width="140" height="26" as="geometry" />
        </mxCell>
        <mxCell id="sw2l6CSHloR5Nsp51yvF-21" value="categories" style="text;strokeColor=#23445d;fillColor=#bac8d3;align=left;verticalAlign=top;spacingLeft=4;spacingRight=4;overflow=hidden;rotatable=0;points=[[0,0.5],[1,0.5]];portConstraint=eastwest;whiteSpace=wrap;html=1;" parent="sw2l6CSHloR5Nsp51yvF-15" vertex="1">
          <mxGeometry y="156" width="140" height="26" as="geometry" />
        </mxCell>
        <mxCell id="sw2l6CSHloR5Nsp51yvF-22" value="tags" style="text;strokeColor=#23445d;fillColor=#bac8d3;align=left;verticalAlign=top;spacingLeft=4;spacingRight=4;overflow=hidden;rotatable=0;points=[[0,0.5],[1,0.5]];portConstraint=eastwest;whiteSpace=wrap;html=1;" parent="sw2l6CSHloR5Nsp51yvF-15" vertex="1">
          <mxGeometry y="182" width="140" height="26" as="geometry" />
        </mxCell>
        <mxCell id="sw2l6CSHloR5Nsp51yvF-26" value="status" style="text;strokeColor=#23445d;fillColor=#bac8d3;align=left;verticalAlign=top;spacingLeft=4;spacingRight=4;overflow=hidden;rotatable=0;points=[[0,0.5],[1,0.5]];portConstraint=eastwest;whiteSpace=wrap;html=1;" parent="sw2l6CSHloR5Nsp51yvF-15" vertex="1">
          <mxGeometry y="208" width="140" height="26" as="geometry" />
        </mxCell>
        <mxCell id="sw2l6CSHloR5Nsp51yvF-17" value="user" style="text;strokeColor=#23445d;fillColor=#bac8d3;align=left;verticalAlign=top;spacingLeft=4;spacingRight=4;overflow=hidden;rotatable=0;points=[[0,0.5],[1,0.5]];portConstraint=eastwest;whiteSpace=wrap;html=1;" parent="sw2l6CSHloR5Nsp51yvF-15" vertex="1">
          <mxGeometry y="234" width="140" height="26" as="geometry" />
        </mxCell>
        <mxCell id="sw2l6CSHloR5Nsp51yvF-25" value="created_at" style="text;strokeColor=#23445d;fillColor=#bac8d3;align=left;verticalAlign=top;spacingLeft=4;spacingRight=4;overflow=hidden;rotatable=0;points=[[0,0.5],[1,0.5]];portConstraint=eastwest;whiteSpace=wrap;html=1;" parent="sw2l6CSHloR5Nsp51yvF-15" vertex="1">
          <mxGeometry y="260" width="140" height="26" as="geometry" />
        </mxCell>
        <mxCell id="sw2l6CSHloR5Nsp51yvF-23" value="published_at" style="text;strokeColor=#23445d;fillColor=#bac8d3;align=left;verticalAlign=top;spacingLeft=4;spacingRight=4;overflow=hidden;rotatable=0;points=[[0,0.5],[1,0.5]];portConstraint=eastwest;whiteSpace=wrap;html=1;" parent="sw2l6CSHloR5Nsp51yvF-15" vertex="1">
          <mxGeometry y="286" width="140" height="26" as="geometry" />
        </mxCell>
        <mxCell id="sw2l6CSHloR5Nsp51yvF-24" value="updated_at" style="text;strokeColor=#23445d;fillColor=#bac8d3;align=left;verticalAlign=top;spacingLeft=4;spacingRight=4;overflow=hidden;rotatable=0;points=[[0,0.5],[1,0.5]];portConstraint=eastwest;whiteSpace=wrap;html=1;" parent="sw2l6CSHloR5Nsp51yvF-15" vertex="1">
          <mxGeometry y="312" width="140" height="26" as="geometry" />
        </mxCell>
        <mxCell id="sw2l6CSHloR5Nsp51yvF-27" value="distribute_global" style="text;strokeColor=#23445d;fillColor=#bac8d3;align=left;verticalAlign=top;spacingLeft=4;spacingRight=4;overflow=hidden;rotatable=0;points=[[0,0.5],[1,0.5]];portConstraint=eastwest;whiteSpace=wrap;html=1;" parent="sw2l6CSHloR5Nsp51yvF-15" vertex="1">
          <mxGeometry y="338" width="140" height="26" as="geometry" />
        </mxCell>
        <mxCell id="sw2l6CSHloR5Nsp51yvF-29" value="editions" style="swimlane;fontStyle=0;childLayout=stackLayout;horizontal=1;startSize=26;fillColor=#bac8d3;horizontalStack=0;resizeParent=1;resizeParentMax=0;resizeLast=0;collapsible=1;marginBottom=0;whiteSpace=wrap;html=1;strokeColor=#23445d;" parent="1" vertex="1">
          <mxGeometry x="500" y="210" width="140" height="260" as="geometry" />
        </mxCell>
        <mxCell id="sw2l6CSHloR5Nsp51yvF-30" value="id" style="text;strokeColor=#23445d;fillColor=#bac8d3;align=left;verticalAlign=top;spacingLeft=4;spacingRight=4;overflow=hidden;rotatable=0;points=[[0,0.5],[1,0.5]];portConstraint=eastwest;whiteSpace=wrap;html=1;" parent="sw2l6CSHloR5Nsp51yvF-29" vertex="1">
          <mxGeometry y="26" width="140" height="26" as="geometry" />
        </mxCell>
        <mxCell id="sw2l6CSHloR5Nsp51yvF-31" value="article" style="text;strokeColor=#23445d;fillColor=#bac8d3;align=left;verticalAlign=top;spacingLeft=4;spacingRight=4;overflow=hidden;rotatable=0;points=[[0,0.5],[1,0.5]];portConstraint=eastwest;whiteSpace=wrap;html=1;" parent="sw2l6CSHloR5Nsp51yvF-29" vertex="1">
          <mxGeometry y="52" width="140" height="26" as="geometry" />
        </mxCell>
        <mxCell id="sw2l6CSHloR5Nsp51yvF-34" value="user" style="text;strokeColor=#23445d;fillColor=#bac8d3;align=left;verticalAlign=top;spacingLeft=4;spacingRight=4;overflow=hidden;rotatable=0;points=[[0,0.5],[1,0.5]];portConstraint=eastwest;whiteSpace=wrap;html=1;" parent="sw2l6CSHloR5Nsp51yvF-29" vertex="1">
          <mxGeometry y="78" width="140" height="26" as="geometry" />
        </mxCell>
        <mxCell id="sw2l6CSHloR5Nsp51yvF-32" value="title" style="text;strokeColor=#23445d;fillColor=#bac8d3;align=left;verticalAlign=top;spacingLeft=4;spacingRight=4;overflow=hidden;rotatable=0;points=[[0,0.5],[1,0.5]];portConstraint=eastwest;whiteSpace=wrap;html=1;" parent="sw2l6CSHloR5Nsp51yvF-29" vertex="1">
          <mxGeometry y="104" width="140" height="26" as="geometry" />
        </mxCell>
        <mxCell id="7hAhSIwU50H5kLtLWJTF-12" value="content" style="text;strokeColor=#23445d;fillColor=#bac8d3;align=left;verticalAlign=top;spacingLeft=4;spacingRight=4;overflow=hidden;rotatable=0;points=[[0,0.5],[1,0.5]];portConstraint=eastwest;whiteSpace=wrap;html=1;" parent="sw2l6CSHloR5Nsp51yvF-29" vertex="1">
          <mxGeometry y="130" width="140" height="26" as="geometry" />
        </mxCell>
        <mxCell id="t0aeH4b98veFZBeMl7XW-1" value="status" style="text;strokeColor=#23445d;fillColor=#bac8d3;align=left;verticalAlign=top;spacingLeft=4;spacingRight=4;overflow=hidden;rotatable=0;points=[[0,0.5],[1,0.5]];portConstraint=eastwest;whiteSpace=wrap;html=1;" parent="sw2l6CSHloR5Nsp51yvF-29" vertex="1">
          <mxGeometry y="156" width="140" height="26" as="geometry" />
        </mxCell>
        <mxCell id="7hAhSIwU50H5kLtLWJTF-15" value="published_at" style="text;strokeColor=#23445d;fillColor=#bac8d3;align=left;verticalAlign=top;spacingLeft=4;spacingRight=4;overflow=hidden;rotatable=0;points=[[0,0.5],[1,0.5]];portConstraint=eastwest;whiteSpace=wrap;html=1;" parent="sw2l6CSHloR5Nsp51yvF-29" vertex="1">
          <mxGeometry y="182" width="140" height="26" as="geometry" />
        </mxCell>
        <mxCell id="7hAhSIwU50H5kLtLWJTF-14" value="updated_at" style="text;strokeColor=#23445d;fillColor=#bac8d3;align=left;verticalAlign=top;spacingLeft=4;spacingRight=4;overflow=hidden;rotatable=0;points=[[0,0.5],[1,0.5]];portConstraint=eastwest;whiteSpace=wrap;html=1;" parent="sw2l6CSHloR5Nsp51yvF-29" vertex="1">
          <mxGeometry y="208" width="140" height="26" as="geometry" />
        </mxCell>
        <mxCell id="7hAhSIwU50H5kLtLWJTF-13" value="created_at" style="text;strokeColor=#23445d;fillColor=#bac8d3;align=left;verticalAlign=top;spacingLeft=4;spacingRight=4;overflow=hidden;rotatable=0;points=[[0,0.5],[1,0.5]];portConstraint=eastwest;whiteSpace=wrap;html=1;" parent="sw2l6CSHloR5Nsp51yvF-29" vertex="1">
          <mxGeometry y="234" width="140" height="26" as="geometry" />
        </mxCell>
        <mxCell id="7hAhSIwU50H5kLtLWJTF-1" value="comments" style="swimlane;fontStyle=0;childLayout=stackLayout;horizontal=1;startSize=26;fillColor=#bac8d3;horizontalStack=0;resizeParent=1;resizeParentMax=0;resizeLast=0;collapsible=1;marginBottom=0;whiteSpace=wrap;html=1;strokeColor=#23445d;" parent="1" vertex="1">
          <mxGeometry x="650" y="210" width="140" height="208" as="geometry" />
        </mxCell>
        <mxCell id="7hAhSIwU50H5kLtLWJTF-2" value="id" style="text;strokeColor=#23445d;fillColor=#bac8d3;align=left;verticalAlign=top;spacingLeft=4;spacingRight=4;overflow=hidden;rotatable=0;points=[[0,0.5],[1,0.5]];portConstraint=eastwest;whiteSpace=wrap;html=1;" parent="7hAhSIwU50H5kLtLWJTF-1" vertex="1">
          <mxGeometry y="26" width="140" height="26" as="geometry" />
        </mxCell>
        <mxCell id="7hAhSIwU50H5kLtLWJTF-3" value="subject" style="text;strokeColor=#23445d;fillColor=#bac8d3;align=left;verticalAlign=top;spacingLeft=4;spacingRight=4;overflow=hidden;rotatable=0;points=[[0,0.5],[1,0.5]];portConstraint=eastwest;whiteSpace=wrap;html=1;" parent="7hAhSIwU50H5kLtLWJTF-1" vertex="1">
          <mxGeometry y="52" width="140" height="26" as="geometry" />
        </mxCell>
        <mxCell id="7hAhSIwU50H5kLtLWJTF-11" value="user" style="text;strokeColor=#23445d;fillColor=#bac8d3;align=left;verticalAlign=top;spacingLeft=4;spacingRight=4;overflow=hidden;rotatable=0;points=[[0,0.5],[1,0.5]];portConstraint=eastwest;whiteSpace=wrap;html=1;" parent="7hAhSIwU50H5kLtLWJTF-1" vertex="1">
          <mxGeometry y="78" width="140" height="26" as="geometry" />
        </mxCell>
        <mxCell id="TsAtWtG75XeKbMvXA45H-8" value="type" style="text;strokeColor=#23445d;fillColor=#bac8d3;align=left;verticalAlign=top;spacingLeft=4;spacingRight=4;overflow=hidden;rotatable=0;points=[[0,0.5],[1,0.5]];portConstraint=eastwest;whiteSpace=wrap;html=1;" parent="7hAhSIwU50H5kLtLWJTF-1" vertex="1">
          <mxGeometry y="104" width="140" height="26" as="geometry" />
        </mxCell>
        <mxCell id="vaSnlmAfPE0_I5rGUTRg-1" value="status" style="text;strokeColor=#23445d;fillColor=#bac8d3;align=left;verticalAlign=top;spacingLeft=4;spacingRight=4;overflow=hidden;rotatable=0;points=[[0,0.5],[1,0.5]];portConstraint=eastwest;whiteSpace=wrap;html=1;" vertex="1" parent="7hAhSIwU50H5kLtLWJTF-1">
          <mxGeometry y="130" width="140" height="26" as="geometry" />
        </mxCell>
        <mxCell id="7hAhSIwU50H5kLtLWJTF-4" value="created_at" style="text;strokeColor=#23445d;fillColor=#bac8d3;align=left;verticalAlign=top;spacingLeft=4;spacingRight=4;overflow=hidden;rotatable=0;points=[[0,0.5],[1,0.5]];portConstraint=eastwest;whiteSpace=wrap;html=1;" parent="7hAhSIwU50H5kLtLWJTF-1" vertex="1">
          <mxGeometry y="156" width="140" height="26" as="geometry" />
        </mxCell>
        <mxCell id="7hAhSIwU50H5kLtLWJTF-45" value="updated_at" style="text;strokeColor=#23445d;fillColor=#bac8d3;align=left;verticalAlign=top;spacingLeft=4;spacingRight=4;overflow=hidden;rotatable=0;points=[[0,0.5],[1,0.5]];portConstraint=eastwest;whiteSpace=wrap;html=1;" parent="7hAhSIwU50H5kLtLWJTF-1" vertex="1">
          <mxGeometry y="182" width="140" height="26" as="geometry" />
        </mxCell>
        <mxCell id="7hAhSIwU50H5kLtLWJTF-6" value="Upvote" style="swimlane;fontStyle=0;childLayout=stackLayout;horizontal=1;startSize=26;fillColor=#bac8d3;horizontalStack=0;resizeParent=1;resizeParentMax=0;resizeLast=0;collapsible=1;marginBottom=0;whiteSpace=wrap;html=1;strokeColor=#23445d;" parent="1" vertex="1">
          <mxGeometry x="800" y="210" width="140" height="130" as="geometry" />
        </mxCell>
        <mxCell id="7hAhSIwU50H5kLtLWJTF-7" value="id" style="text;strokeColor=#23445d;fillColor=#bac8d3;align=left;verticalAlign=top;spacingLeft=4;spacingRight=4;overflow=hidden;rotatable=0;points=[[0,0.5],[1,0.5]];portConstraint=eastwest;whiteSpace=wrap;html=1;" parent="7hAhSIwU50H5kLtLWJTF-6" vertex="1">
          <mxGeometry y="26" width="140" height="26" as="geometry" />
        </mxCell>
        <mxCell id="7hAhSIwU50H5kLtLWJTF-8" value="subject" style="text;strokeColor=#23445d;fillColor=#bac8d3;align=left;verticalAlign=top;spacingLeft=4;spacingRight=4;overflow=hidden;rotatable=0;points=[[0,0.5],[1,0.5]];portConstraint=eastwest;whiteSpace=wrap;html=1;" parent="7hAhSIwU50H5kLtLWJTF-6" vertex="1">
          <mxGeometry y="52" width="140" height="26" as="geometry" />
        </mxCell>
        <mxCell id="7hAhSIwU50H5kLtLWJTF-9" value="user" style="text;strokeColor=#23445d;fillColor=#bac8d3;align=left;verticalAlign=top;spacingLeft=4;spacingRight=4;overflow=hidden;rotatable=0;points=[[0,0.5],[1,0.5]];portConstraint=eastwest;whiteSpace=wrap;html=1;" parent="7hAhSIwU50H5kLtLWJTF-6" vertex="1">
          <mxGeometry y="78" width="140" height="26" as="geometry" />
        </mxCell>
        <mxCell id="7hAhSIwU50H5kLtLWJTF-10" value="type" style="text;strokeColor=#23445d;fillColor=#bac8d3;align=left;verticalAlign=top;spacingLeft=4;spacingRight=4;overflow=hidden;rotatable=0;points=[[0,0.5],[1,0.5]];portConstraint=eastwest;whiteSpace=wrap;html=1;" parent="7hAhSIwU50H5kLtLWJTF-6" vertex="1">
          <mxGeometry y="104" width="140" height="26" as="geometry" />
        </mxCell>
        <mxCell id="7hAhSIwU50H5kLtLWJTF-16" value="repositories" style="swimlane;fontStyle=0;childLayout=stackLayout;horizontal=1;startSize=26;fillColor=#bac8d3;horizontalStack=0;resizeParent=1;resizeParentMax=0;resizeLast=0;collapsible=1;marginBottom=0;whiteSpace=wrap;html=1;strokeColor=#23445d;" parent="1" vertex="1">
          <mxGeometry x="1320" y="210" width="140" height="104" as="geometry" />
        </mxCell>
        <mxCell id="7hAhSIwU50H5kLtLWJTF-17" value="id" style="text;strokeColor=#23445d;fillColor=#bac8d3;align=left;verticalAlign=top;spacingLeft=4;spacingRight=4;overflow=hidden;rotatable=0;points=[[0,0.5],[1,0.5]];portConstraint=eastwest;whiteSpace=wrap;html=1;" parent="7hAhSIwU50H5kLtLWJTF-16" vertex="1">
          <mxGeometry y="26" width="140" height="26" as="geometry" />
        </mxCell>
        <mxCell id="7hAhSIwU50H5kLtLWJTF-21" value="repo_url" style="text;strokeColor=#23445d;fillColor=#bac8d3;align=left;verticalAlign=top;spacingLeft=4;spacingRight=4;overflow=hidden;rotatable=0;points=[[0,0.5],[1,0.5]];portConstraint=eastwest;whiteSpace=wrap;html=1;" parent="7hAhSIwU50H5kLtLWJTF-16" vertex="1">
          <mxGeometry y="52" width="140" height="26" as="geometry" />
        </mxCell>
        <mxCell id="7hAhSIwU50H5kLtLWJTF-18" value="clone_url" style="text;strokeColor=#23445d;fillColor=#bac8d3;align=left;verticalAlign=top;spacingLeft=4;spacingRight=4;overflow=hidden;rotatable=0;points=[[0,0.5],[1,0.5]];portConstraint=eastwest;whiteSpace=wrap;html=1;" parent="7hAhSIwU50H5kLtLWJTF-16" vertex="1">
          <mxGeometry y="78" width="140" height="26" as="geometry" />
        </mxCell>
        <mxCell id="7hAhSIwU50H5kLtLWJTF-22" value="passages" style="swimlane;fontStyle=0;childLayout=stackLayout;horizontal=1;startSize=26;fillColor=#bac8d3;horizontalStack=0;resizeParent=1;resizeParentMax=0;resizeLast=0;collapsible=1;marginBottom=0;whiteSpace=wrap;html=1;strokeColor=#23445d;" parent="1" vertex="1">
          <mxGeometry x="1470" y="210" width="140" height="156" as="geometry" />
        </mxCell>
        <mxCell id="7hAhSIwU50H5kLtLWJTF-23" value="id" style="text;strokeColor=#23445d;fillColor=#bac8d3;align=left;verticalAlign=top;spacingLeft=4;spacingRight=4;overflow=hidden;rotatable=0;points=[[0,0.5],[1,0.5]];portConstraint=eastwest;whiteSpace=wrap;html=1;" parent="7hAhSIwU50H5kLtLWJTF-22" vertex="1">
          <mxGeometry y="26" width="140" height="26" as="geometry" />
        </mxCell>
        <mxCell id="7hAhSIwU50H5kLtLWJTF-24" value="credit" style="text;strokeColor=#23445d;fillColor=#bac8d3;align=left;verticalAlign=top;spacingLeft=4;spacingRight=4;overflow=hidden;rotatable=0;points=[[0,0.5],[1,0.5]];portConstraint=eastwest;whiteSpace=wrap;html=1;" parent="7hAhSIwU50H5kLtLWJTF-22" vertex="1">
          <mxGeometry y="52" width="140" height="26" as="geometry" />
        </mxCell>
        <mxCell id="7hAhSIwU50H5kLtLWJTF-25" value="source" style="text;strokeColor=#23445d;fillColor=#bac8d3;align=left;verticalAlign=top;spacingLeft=4;spacingRight=4;overflow=hidden;rotatable=0;points=[[0,0.5],[1,0.5]];portConstraint=eastwest;whiteSpace=wrap;html=1;" parent="7hAhSIwU50H5kLtLWJTF-22" vertex="1">
          <mxGeometry y="78" width="140" height="26" as="geometry" />
        </mxCell>
        <mxCell id="7hAhSIwU50H5kLtLWJTF-26" value="date" style="text;strokeColor=#23445d;fillColor=#bac8d3;align=left;verticalAlign=top;spacingLeft=4;spacingRight=4;overflow=hidden;rotatable=0;points=[[0,0.5],[1,0.5]];portConstraint=eastwest;whiteSpace=wrap;html=1;" parent="7hAhSIwU50H5kLtLWJTF-22" vertex="1">
          <mxGeometry y="104" width="140" height="26" as="geometry" />
        </mxCell>
        <mxCell id="7hAhSIwU50H5kLtLWJTF-27" value="content" style="text;strokeColor=#23445d;fillColor=#bac8d3;align=left;verticalAlign=top;spacingLeft=4;spacingRight=4;overflow=hidden;rotatable=0;points=[[0,0.5],[1,0.5]];portConstraint=eastwest;whiteSpace=wrap;html=1;" parent="7hAhSIwU50H5kLtLWJTF-22" vertex="1">
          <mxGeometry y="130" width="140" height="26" as="geometry" />
        </mxCell>
        <mxCell id="7hAhSIwU50H5kLtLWJTF-28" value="tags" style="swimlane;fontStyle=0;childLayout=stackLayout;horizontal=1;startSize=26;fillColor=#bac8d3;horizontalStack=0;resizeParent=1;resizeParentMax=0;resizeLast=0;collapsible=1;marginBottom=0;whiteSpace=wrap;html=1;strokeColor=#23445d;" parent="1" vertex="1">
          <mxGeometry x="990" y="210" width="140" height="130" as="geometry" />
        </mxCell>
        <mxCell id="7hAhSIwU50H5kLtLWJTF-29" value="id" style="text;strokeColor=#23445d;fillColor=#bac8d3;align=left;verticalAlign=top;spacingLeft=4;spacingRight=4;overflow=hidden;rotatable=0;points=[[0,0.5],[1,0.5]];portConstraint=eastwest;whiteSpace=wrap;html=1;" parent="7hAhSIwU50H5kLtLWJTF-28" vertex="1">
          <mxGeometry y="26" width="140" height="26" as="geometry" />
        </mxCell>
        <mxCell id="7hAhSIwU50H5kLtLWJTF-30" value="name" style="text;strokeColor=#23445d;fillColor=#bac8d3;align=left;verticalAlign=top;spacingLeft=4;spacingRight=4;overflow=hidden;rotatable=0;points=[[0,0.5],[1,0.5]];portConstraint=eastwest;whiteSpace=wrap;html=1;" parent="7hAhSIwU50H5kLtLWJTF-28" vertex="1">
          <mxGeometry y="52" width="140" height="26" as="geometry" />
        </mxCell>
        <mxCell id="7hAhSIwU50H5kLtLWJTF-31" value="title" style="text;strokeColor=#23445d;fillColor=#bac8d3;align=left;verticalAlign=top;spacingLeft=4;spacingRight=4;overflow=hidden;rotatable=0;points=[[0,0.5],[1,0.5]];portConstraint=eastwest;whiteSpace=wrap;html=1;" parent="7hAhSIwU50H5kLtLWJTF-28" vertex="1">
          <mxGeometry y="78" width="140" height="26" as="geometry" />
        </mxCell>
        <mxCell id="7hAhSIwU50H5kLtLWJTF-32" value="content" style="text;strokeColor=#23445d;fillColor=#bac8d3;align=left;verticalAlign=top;spacingLeft=4;spacingRight=4;overflow=hidden;rotatable=0;points=[[0,0.5],[1,0.5]];portConstraint=eastwest;whiteSpace=wrap;html=1;" parent="7hAhSIwU50H5kLtLWJTF-28" vertex="1">
          <mxGeometry y="104" width="140" height="26" as="geometry" />
        </mxCell>
        <mxCell id="7hAhSIwU50H5kLtLWJTF-34" value="categories" style="swimlane;fontStyle=0;childLayout=stackLayout;horizontal=1;startSize=26;fillColor=#bac8d3;horizontalStack=0;resizeParent=1;resizeParentMax=0;resizeLast=0;collapsible=1;marginBottom=0;whiteSpace=wrap;html=1;strokeColor=#23445d;" parent="1" vertex="1">
          <mxGeometry x="1140" y="210" width="140" height="156" as="geometry" />
        </mxCell>
        <mxCell id="7hAhSIwU50H5kLtLWJTF-35" value="id" style="text;strokeColor=#23445d;fillColor=#bac8d3;align=left;verticalAlign=top;spacingLeft=4;spacingRight=4;overflow=hidden;rotatable=0;points=[[0,0.5],[1,0.5]];portConstraint=eastwest;whiteSpace=wrap;html=1;" parent="7hAhSIwU50H5kLtLWJTF-34" vertex="1">
          <mxGeometry y="26" width="140" height="26" as="geometry" />
        </mxCell>
        <mxCell id="7hAhSIwU50H5kLtLWJTF-36" value="name" style="text;strokeColor=#23445d;fillColor=#bac8d3;align=left;verticalAlign=top;spacingLeft=4;spacingRight=4;overflow=hidden;rotatable=0;points=[[0,0.5],[1,0.5]];portConstraint=eastwest;whiteSpace=wrap;html=1;" parent="7hAhSIwU50H5kLtLWJTF-34" vertex="1">
          <mxGeometry y="52" width="140" height="26" as="geometry" />
        </mxCell>
        <mxCell id="7hAhSIwU50H5kLtLWJTF-37" value="title" style="text;strokeColor=#23445d;fillColor=#bac8d3;align=left;verticalAlign=top;spacingLeft=4;spacingRight=4;overflow=hidden;rotatable=0;points=[[0,0.5],[1,0.5]];portConstraint=eastwest;whiteSpace=wrap;html=1;" parent="7hAhSIwU50H5kLtLWJTF-34" vertex="1">
          <mxGeometry y="78" width="140" height="26" as="geometry" />
        </mxCell>
        <mxCell id="7hAhSIwU50H5kLtLWJTF-38" value="content" style="text;strokeColor=#23445d;fillColor=#bac8d3;align=left;verticalAlign=top;spacingLeft=4;spacingRight=4;overflow=hidden;rotatable=0;points=[[0,0.5],[1,0.5]];portConstraint=eastwest;whiteSpace=wrap;html=1;" parent="7hAhSIwU50H5kLtLWJTF-34" vertex="1">
          <mxGeometry y="104" width="140" height="26" as="geometry" />
        </mxCell>
        <mxCell id="7hAhSIwU50H5kLtLWJTF-39" value="parent" style="text;strokeColor=#23445d;fillColor=#bac8d3;align=left;verticalAlign=top;spacingLeft=4;spacingRight=4;overflow=hidden;rotatable=0;points=[[0,0.5],[1,0.5]];portConstraint=eastwest;whiteSpace=wrap;html=1;" parent="7hAhSIwU50H5kLtLWJTF-34" vertex="1">
          <mxGeometry y="130" width="140" height="26" as="geometry" />
        </mxCell>
        <mxCell id="7hAhSIwU50H5kLtLWJTF-40" value="subscriptions" style="swimlane;fontStyle=0;childLayout=stackLayout;horizontal=1;startSize=26;fillColor=#bac8d3;horizontalStack=0;resizeParent=1;resizeParentMax=0;resizeLast=0;collapsible=1;marginBottom=0;whiteSpace=wrap;html=1;strokeColor=#23445d;" parent="1" vertex="1">
          <mxGeometry x="1670" y="210" width="140" height="156" as="geometry" />
        </mxCell>
        <mxCell id="7hAhSIwU50H5kLtLWJTF-41" value="id" style="text;strokeColor=#23445d;fillColor=#bac8d3;align=left;verticalAlign=top;spacingLeft=4;spacingRight=4;overflow=hidden;rotatable=0;points=[[0,0.5],[1,0.5]];portConstraint=eastwest;whiteSpace=wrap;html=1;" parent="7hAhSIwU50H5kLtLWJTF-40" vertex="1">
          <mxGeometry y="26" width="140" height="26" as="geometry" />
        </mxCell>
        <mxCell id="7hAhSIwU50H5kLtLWJTF-42" value="user" style="text;strokeColor=#23445d;fillColor=#bac8d3;align=left;verticalAlign=top;spacingLeft=4;spacingRight=4;overflow=hidden;rotatable=0;points=[[0,0.5],[1,0.5]];portConstraint=eastwest;whiteSpace=wrap;html=1;" parent="7hAhSIwU50H5kLtLWJTF-40" vertex="1">
          <mxGeometry y="52" width="140" height="26" as="geometry" />
        </mxCell>
        <mxCell id="7hAhSIwU50H5kLtLWJTF-43" value="categories" style="text;strokeColor=#23445d;fillColor=#bac8d3;align=left;verticalAlign=top;spacingLeft=4;spacingRight=4;overflow=hidden;rotatable=0;points=[[0,0.5],[1,0.5]];portConstraint=eastwest;whiteSpace=wrap;html=1;" parent="7hAhSIwU50H5kLtLWJTF-40" vertex="1">
          <mxGeometry y="78" width="140" height="26" as="geometry" />
        </mxCell>
        <mxCell id="7hAhSIwU50H5kLtLWJTF-46" value="tags" style="text;strokeColor=#23445d;fillColor=#bac8d3;align=left;verticalAlign=top;spacingLeft=4;spacingRight=4;overflow=hidden;rotatable=0;points=[[0,0.5],[1,0.5]];portConstraint=eastwest;whiteSpace=wrap;html=1;" parent="7hAhSIwU50H5kLtLWJTF-40" vertex="1">
          <mxGeometry y="104" width="140" height="26" as="geometry" />
        </mxCell>
        <mxCell id="7hAhSIwU50H5kLtLWJTF-47" value="preferences" style="text;strokeColor=#23445d;fillColor=#bac8d3;align=left;verticalAlign=top;spacingLeft=4;spacingRight=4;overflow=hidden;rotatable=0;points=[[0,0.5],[1,0.5]];portConstraint=eastwest;whiteSpace=wrap;html=1;" parent="7hAhSIwU50H5kLtLWJTF-40" vertex="1">
          <mxGeometry y="130" width="140" height="26" as="geometry" />
        </mxCell>
        <mxCell id="7hAhSIwU50H5kLtLWJTF-48" value="media" style="swimlane;fontStyle=0;childLayout=stackLayout;horizontal=1;startSize=26;fillColor=#bac8d3;horizontalStack=0;resizeParent=1;resizeParentMax=0;resizeLast=0;collapsible=1;marginBottom=0;whiteSpace=wrap;html=1;strokeColor=#23445d;" parent="1" vertex="1">
          <mxGeometry x="3290" y="210" width="140" height="104" as="geometry" />
        </mxCell>
        <mxCell id="7hAhSIwU50H5kLtLWJTF-49" value="id" style="text;strokeColor=#23445d;fillColor=#bac8d3;align=left;verticalAlign=top;spacingLeft=4;spacingRight=4;overflow=hidden;rotatable=0;points=[[0,0.5],[1,0.5]];portConstraint=eastwest;whiteSpace=wrap;html=1;" parent="7hAhSIwU50H5kLtLWJTF-48" vertex="1">
          <mxGeometry y="26" width="140" height="26" as="geometry" />
        </mxCell>
        <mxCell id="7hAhSIwU50H5kLtLWJTF-50" value="url" style="text;strokeColor=#23445d;fillColor=#bac8d3;align=left;verticalAlign=top;spacingLeft=4;spacingRight=4;overflow=hidden;rotatable=0;points=[[0,0.5],[1,0.5]];portConstraint=eastwest;whiteSpace=wrap;html=1;" parent="7hAhSIwU50H5kLtLWJTF-48" vertex="1">
          <mxGeometry y="52" width="140" height="26" as="geometry" />
        </mxCell>
        <mxCell id="7hAhSIwU50H5kLtLWJTF-58" value="media_type" style="text;strokeColor=#23445d;fillColor=#bac8d3;align=left;verticalAlign=top;spacingLeft=4;spacingRight=4;overflow=hidden;rotatable=0;points=[[0,0.5],[1,0.5]];portConstraint=eastwest;whiteSpace=wrap;html=1;" parent="7hAhSIwU50H5kLtLWJTF-48" vertex="1">
          <mxGeometry y="78" width="140" height="26" as="geometry" />
        </mxCell>
        <mxCell id="7hAhSIwU50H5kLtLWJTF-54" value="media_meta" style="swimlane;fontStyle=0;childLayout=stackLayout;horizontal=1;startSize=26;fillColor=#bac8d3;horizontalStack=0;resizeParent=1;resizeParentMax=0;resizeLast=0;collapsible=1;marginBottom=0;whiteSpace=wrap;html=1;strokeColor=#23445d;" parent="1" vertex="1">
          <mxGeometry x="3440" y="210" width="140" height="104" as="geometry" />
        </mxCell>
        <mxCell id="7hAhSIwU50H5kLtLWJTF-55" value="id" style="text;strokeColor=#23445d;fillColor=#bac8d3;align=left;verticalAlign=top;spacingLeft=4;spacingRight=4;overflow=hidden;rotatable=0;points=[[0,0.5],[1,0.5]];portConstraint=eastwest;whiteSpace=wrap;html=1;" parent="7hAhSIwU50H5kLtLWJTF-54" vertex="1">
          <mxGeometry y="26" width="140" height="26" as="geometry" />
        </mxCell>
        <mxCell id="7hAhSIwU50H5kLtLWJTF-56" value="key" style="text;strokeColor=#23445d;fillColor=#bac8d3;align=left;verticalAlign=top;spacingLeft=4;spacingRight=4;overflow=hidden;rotatable=0;points=[[0,0.5],[1,0.5]];portConstraint=eastwest;whiteSpace=wrap;html=1;" parent="7hAhSIwU50H5kLtLWJTF-54" vertex="1">
          <mxGeometry y="52" width="140" height="26" as="geometry" />
        </mxCell>
        <mxCell id="7hAhSIwU50H5kLtLWJTF-57" value="value" style="text;strokeColor=#23445d;fillColor=#bac8d3;align=left;verticalAlign=top;spacingLeft=4;spacingRight=4;overflow=hidden;rotatable=0;points=[[0,0.5],[1,0.5]];portConstraint=eastwest;whiteSpace=wrap;html=1;" parent="7hAhSIwU50H5kLtLWJTF-54" vertex="1">
          <mxGeometry y="78" width="140" height="26" as="geometry" />
        </mxCell>
        <mxCell id="iH1gFNaT6u5wNhTTv8Le-1" value="Article" style="swimlane;fontStyle=1;align=center;verticalAlign=top;childLayout=stackLayout;horizontal=1;startSize=26;horizontalStack=0;resizeParent=1;resizeParentMax=0;resizeLast=0;collapsible=1;marginBottom=0;whiteSpace=wrap;html=1;fillColor=#dae8fc;strokeColor=#6c8ebf;flipH=1;" parent="1" vertex="1">
          <mxGeometry x="380" y="700" width="160" height="52" as="geometry" />
        </mxCell>
        <mxCell id="HM_dwwHd47jJwBjQUa-0-11" value="" style="text;strokeColor=#6c8ebf;fillColor=#dae8fc;align=left;verticalAlign=top;spacingLeft=4;spacingRight=4;overflow=hidden;rotatable=0;points=[[0,0.5],[1,0.5]];portConstraint=eastwest;whiteSpace=wrap;html=1;" parent="iH1gFNaT6u5wNhTTv8Le-1" vertex="1">
          <mxGeometry y="26" width="160" height="26" as="geometry" />
        </mxCell>
        <mxCell id="iH1gFNaT6u5wNhTTv8Le-4" value="Edition" style="swimlane;fontStyle=1;align=center;verticalAlign=top;childLayout=stackLayout;horizontal=1;startSize=26;horizontalStack=0;resizeParent=1;resizeParentMax=0;resizeLast=0;collapsible=1;marginBottom=0;whiteSpace=wrap;html=1;fillColor=#dae8fc;strokeColor=#6c8ebf;flipH=1;" parent="1" vertex="1">
          <mxGeometry x="554" y="700" width="160" height="52" as="geometry" />
        </mxCell>
        <mxCell id="HM_dwwHd47jJwBjQUa-0-10" value="" style="text;strokeColor=#6c8ebf;fillColor=#dae8fc;align=left;verticalAlign=top;spacingLeft=4;spacingRight=4;overflow=hidden;rotatable=0;points=[[0,0.5],[1,0.5]];portConstraint=eastwest;whiteSpace=wrap;html=1;" parent="iH1gFNaT6u5wNhTTv8Le-4" vertex="1">
          <mxGeometry y="26" width="160" height="26" as="geometry" />
        </mxCell>
        <mxCell id="iH1gFNaT6u5wNhTTv8Le-7" value="Comment" style="swimlane;fontStyle=1;align=center;verticalAlign=top;childLayout=stackLayout;horizontal=1;startSize=26;horizontalStack=0;resizeParent=1;resizeParentMax=0;resizeLast=0;collapsible=1;marginBottom=0;whiteSpace=wrap;html=1;fillColor=#dae8fc;strokeColor=#6c8ebf;flipH=1;" parent="1" vertex="1">
          <mxGeometry x="730" y="700" width="160" height="52" as="geometry" />
        </mxCell>
        <mxCell id="HM_dwwHd47jJwBjQUa-0-12" value="" style="text;strokeColor=#6c8ebf;fillColor=#dae8fc;align=left;verticalAlign=top;spacingLeft=4;spacingRight=4;overflow=hidden;rotatable=0;points=[[0,0.5],[1,0.5]];portConstraint=eastwest;whiteSpace=wrap;html=1;" parent="iH1gFNaT6u5wNhTTv8Le-7" vertex="1">
          <mxGeometry y="26" width="160" height="26" as="geometry" />
        </mxCell>
        <mxCell id="iH1gFNaT6u5wNhTTv8Le-10" value="User" style="swimlane;fontStyle=1;align=center;verticalAlign=top;childLayout=stackLayout;horizontal=1;startSize=26;horizontalStack=0;resizeParent=1;resizeParentMax=0;resizeLast=0;collapsible=1;marginBottom=0;whiteSpace=wrap;html=1;fillColor=#dae8fc;strokeColor=#6c8ebf;" parent="1" vertex="1">
          <mxGeometry x="200" y="700" width="160" height="52" as="geometry" />
        </mxCell>
        <mxCell id="iH1gFNaT6u5wNhTTv8Le-11" value="" style="text;strokeColor=#6c8ebf;fillColor=#dae8fc;align=left;verticalAlign=top;spacingLeft=4;spacingRight=4;overflow=hidden;rotatable=0;points=[[0,0.5],[1,0.5]];portConstraint=eastwest;whiteSpace=wrap;html=1;" parent="iH1gFNaT6u5wNhTTv8Le-10" vertex="1">
          <mxGeometry y="26" width="160" height="26" as="geometry" />
        </mxCell>
        <mxCell id="iH1gFNaT6u5wNhTTv8Le-13" value="Subscription" style="swimlane;fontStyle=1;align=center;verticalAlign=top;childLayout=stackLayout;horizontal=1;startSize=26;horizontalStack=0;resizeParent=1;resizeParentMax=0;resizeLast=0;collapsible=1;marginBottom=0;whiteSpace=wrap;html=1;fillColor=#dae8fc;strokeColor=#6c8ebf;flipH=1;" parent="1" vertex="1">
          <mxGeometry x="1330" y="692" width="160" height="52" as="geometry" />
        </mxCell>
        <mxCell id="HM_dwwHd47jJwBjQUa-0-13" value="" style="text;strokeColor=#6c8ebf;fillColor=#dae8fc;align=left;verticalAlign=top;spacingLeft=4;spacingRight=4;overflow=hidden;rotatable=0;points=[[0,0.5],[1,0.5]];portConstraint=eastwest;whiteSpace=wrap;html=1;" parent="iH1gFNaT6u5wNhTTv8Le-13" vertex="1">
          <mxGeometry y="26" width="160" height="26" as="geometry" />
        </mxCell>
        <mxCell id="iH1gFNaT6u5wNhTTv8Le-16" value="Media" style="swimlane;fontStyle=1;align=center;verticalAlign=top;childLayout=stackLayout;horizontal=1;startSize=26;horizontalStack=0;resizeParent=1;resizeParentMax=0;resizeLast=0;collapsible=1;marginBottom=0;whiteSpace=wrap;html=1;fillColor=#dae8fc;strokeColor=#6c8ebf;" parent="1" vertex="1">
          <mxGeometry x="1610" y="692" width="160" height="52" as="geometry" />
        </mxCell>
        <mxCell id="HM_dwwHd47jJwBjQUa-0-15" value="" style="text;strokeColor=#6c8ebf;fillColor=#dae8fc;align=left;verticalAlign=top;spacingLeft=4;spacingRight=4;overflow=hidden;rotatable=0;points=[[0,0.5],[1,0.5]];portConstraint=eastwest;whiteSpace=wrap;html=1;" parent="iH1gFNaT6u5wNhTTv8Le-16" vertex="1">
          <mxGeometry y="26" width="160" height="26" as="geometry" />
        </mxCell>
        <mxCell id="iH1gFNaT6u5wNhTTv8Le-19" value="MediaMeta" style="swimlane;fontStyle=1;align=center;verticalAlign=top;childLayout=stackLayout;horizontal=1;startSize=26;horizontalStack=0;resizeParent=1;resizeParentMax=0;resizeLast=0;collapsible=1;marginBottom=0;whiteSpace=wrap;html=1;fillColor=#dae8fc;strokeColor=#6c8ebf;" parent="1" vertex="1">
          <mxGeometry x="1790" y="692" width="160" height="52" as="geometry" />
        </mxCell>
        <mxCell id="HM_dwwHd47jJwBjQUa-0-16" value="" style="text;strokeColor=#6c8ebf;fillColor=#dae8fc;align=left;verticalAlign=top;spacingLeft=4;spacingRight=4;overflow=hidden;rotatable=0;points=[[0,0.5],[1,0.5]];portConstraint=eastwest;whiteSpace=wrap;html=1;" parent="iH1gFNaT6u5wNhTTv8Le-19" vertex="1">
          <mxGeometry y="26" width="160" height="26" as="geometry" />
        </mxCell>
        <mxCell id="iH1gFNaT6u5wNhTTv8Le-22" value="Upvote" style="swimlane;fontStyle=1;align=center;verticalAlign=top;childLayout=stackLayout;horizontal=1;startSize=26;horizontalStack=0;resizeParent=1;resizeParentMax=0;resizeLast=0;collapsible=1;marginBottom=0;whiteSpace=wrap;html=1;fillColor=#dae8fc;strokeColor=#6c8ebf;flipH=1;" parent="1" vertex="1">
          <mxGeometry x="910" y="700" width="160" height="52" as="geometry" />
        </mxCell>
        <mxCell id="HM_dwwHd47jJwBjQUa-0-14" value="" style="text;strokeColor=#6c8ebf;fillColor=#dae8fc;align=left;verticalAlign=top;spacingLeft=4;spacingRight=4;overflow=hidden;rotatable=0;points=[[0,0.5],[1,0.5]];portConstraint=eastwest;whiteSpace=wrap;html=1;" parent="iH1gFNaT6u5wNhTTv8Le-22" vertex="1">
          <mxGeometry y="26" width="160" height="26" as="geometry" />
        </mxCell>
        <mxCell id="HM_dwwHd47jJwBjQUa-0-8" value="Model" style="html=1;whiteSpace=wrap;fillColor=#dae8fc;strokeColor=#6c8ebf;" parent="1" vertex="1">
          <mxGeometry x="-730" y="600" width="110" height="50" as="geometry" />
        </mxCell>
        <mxCell id="HM_dwwHd47jJwBjQUa-0-9" value="Request" style="html=1;whiteSpace=wrap;fillColor=#e1d5e7;strokeColor=#9673a6;" parent="1" vertex="1">
          <mxGeometry x="-730" y="744" width="110" height="50" as="geometry" />
        </mxCell>
        <mxCell id="HM_dwwHd47jJwBjQUa-0-20" value="Interface" style="html=1;whiteSpace=wrap;fillColor=#d5e8d4;strokeColor=#82b366;" parent="1" vertex="1">
          <mxGeometry x="-730" y="950" width="110" height="50" as="geometry" />
        </mxCell>
        <mxCell id="HM_dwwHd47jJwBjQUa-0-92" value="Category" style="swimlane;fontStyle=1;align=center;verticalAlign=top;childLayout=stackLayout;horizontal=1;startSize=26;horizontalStack=0;resizeParent=1;resizeParentMax=0;resizeLast=0;collapsible=1;marginBottom=0;whiteSpace=wrap;html=1;fillColor=#dae8fc;strokeColor=#6c8ebf;" parent="1" vertex="1">
          <mxGeometry x="2260" y="692" width="160" height="52" as="geometry" />
        </mxCell>
        <mxCell id="HM_dwwHd47jJwBjQUa-0-93" value="" style="text;strokeColor=#6c8ebf;fillColor=#dae8fc;align=left;verticalAlign=top;spacingLeft=4;spacingRight=4;overflow=hidden;rotatable=0;points=[[0,0.5],[1,0.5]];portConstraint=eastwest;whiteSpace=wrap;html=1;" parent="HM_dwwHd47jJwBjQUa-0-92" vertex="1">
          <mxGeometry y="26" width="160" height="26" as="geometry" />
        </mxCell>
        <mxCell id="HM_dwwHd47jJwBjQUa-0-94" value="Tag" style="swimlane;fontStyle=1;align=center;verticalAlign=top;childLayout=stackLayout;horizontal=1;startSize=26;horizontalStack=0;resizeParent=1;resizeParentMax=0;resizeLast=0;collapsible=1;marginBottom=0;whiteSpace=wrap;html=1;fillColor=#dae8fc;strokeColor=#6c8ebf;" parent="1" vertex="1">
          <mxGeometry x="2070" y="692" width="160" height="52" as="geometry" />
        </mxCell>
        <mxCell id="HM_dwwHd47jJwBjQUa-0-95" value="" style="text;strokeColor=#6c8ebf;fillColor=#dae8fc;align=left;verticalAlign=top;spacingLeft=4;spacingRight=4;overflow=hidden;rotatable=0;points=[[0,0.5],[1,0.5]];portConstraint=eastwest;whiteSpace=wrap;html=1;" parent="HM_dwwHd47jJwBjQUa-0-94" vertex="1">
          <mxGeometry y="26" width="160" height="26" as="geometry" />
        </mxCell>
        <mxCell id="HM_dwwHd47jJwBjQUa-0-96" value="Repository" style="swimlane;fontStyle=1;align=center;verticalAlign=top;childLayout=stackLayout;horizontal=1;startSize=26;horizontalStack=0;resizeParent=1;resizeParentMax=0;resizeLast=0;collapsible=1;marginBottom=0;whiteSpace=wrap;html=1;fillColor=#dae8fc;strokeColor=#6c8ebf;" parent="1" vertex="1">
          <mxGeometry x="2500" y="692" width="160" height="52" as="geometry" />
        </mxCell>
        <mxCell id="HM_dwwHd47jJwBjQUa-0-97" value="" style="text;strokeColor=#6c8ebf;fillColor=#dae8fc;align=left;verticalAlign=top;spacingLeft=4;spacingRight=4;overflow=hidden;rotatable=0;points=[[0,0.5],[1,0.5]];portConstraint=eastwest;whiteSpace=wrap;html=1;" parent="HM_dwwHd47jJwBjQUa-0-96" vertex="1">
          <mxGeometry y="26" width="160" height="26" as="geometry" />
        </mxCell>
        <mxCell id="HM_dwwHd47jJwBjQUa-0-101" value="Passage" style="swimlane;fontStyle=1;align=center;verticalAlign=top;childLayout=stackLayout;horizontal=1;startSize=26;horizontalStack=0;resizeParent=1;resizeParentMax=0;resizeLast=0;collapsible=1;marginBottom=0;whiteSpace=wrap;html=1;fillColor=#dae8fc;strokeColor=#6c8ebf;" parent="1" vertex="1">
          <mxGeometry x="2735" y="692" width="160" height="52" as="geometry" />
        </mxCell>
        <mxCell id="HM_dwwHd47jJwBjQUa-0-102" value="" style="text;strokeColor=#6c8ebf;fillColor=#dae8fc;align=left;verticalAlign=top;spacingLeft=4;spacingRight=4;overflow=hidden;rotatable=0;points=[[0,0.5],[1,0.5]];portConstraint=eastwest;whiteSpace=wrap;html=1;" parent="HM_dwwHd47jJwBjQUa-0-101" vertex="1">
          <mxGeometry y="26" width="160" height="26" as="geometry" />
        </mxCell>
        <mxCell id="HM_dwwHd47jJwBjQUa-0-108" value="Database Table" style="html=1;whiteSpace=wrap;fillColor=#bac8d3;strokeColor=#23445d;" parent="1" vertex="1">
          <mxGeometry x="-730" y="470" width="110" height="50" as="geometry" />
        </mxCell>
        <mxCell id="HM_dwwHd47jJwBjQUa-0-109" value="Service" style="html=1;whiteSpace=wrap;fillColor=#f5f5f5;strokeColor=#666666;fontColor=#333333;" parent="1" vertex="1">
          <mxGeometry x="-730" y="820" width="110" height="50" as="geometry" />
        </mxCell>
        <mxCell id="HM_dwwHd47jJwBjQUa-0-110" value="Collection" style="html=1;whiteSpace=wrap;fillColor=#b0e3e6;strokeColor=#0e8088;" parent="1" vertex="1">
          <mxGeometry x="-730" y="670" width="110" height="50" as="geometry" />
        </mxCell>
        <mxCell id="cliZu55Dn8Lg6LJt5rni-1" value="ArticleServiceInterface" style="swimlane;fontStyle=1;align=center;verticalAlign=top;childLayout=stackLayout;horizontal=1;startSize=26;horizontalStack=0;resizeParent=1;resizeParentMax=0;resizeLast=0;collapsible=1;marginBottom=0;whiteSpace=wrap;html=1;fillColor=#d5e8d4;strokeColor=#82b366;" parent="1" vertex="1">
          <mxGeometry x="450" y="930" width="230" height="182" as="geometry" />
        </mxCell>
        <mxCell id="cliZu55Dn8Lg6LJt5rni-25" value="get(id)" style="text;strokeColor=#82b366;fillColor=#d5e8d4;align=left;verticalAlign=top;spacingLeft=4;spacingRight=4;overflow=hidden;rotatable=0;points=[[0,0.5],[1,0.5]];portConstraint=eastwest;whiteSpace=wrap;html=1;" parent="cliZu55Dn8Lg6LJt5rni-1" vertex="1">
          <mxGeometry y="26" width="230" height="26" as="geometry" />
        </mxCell>
        <mxCell id="cliZu55Dn8Lg6LJt5rni-4" value="getEditions(Article): Collection" style="text;strokeColor=#82b366;fillColor=#d5e8d4;align=left;verticalAlign=top;spacingLeft=4;spacingRight=4;overflow=hidden;rotatable=0;points=[[0,0.5],[1,0.5]];portConstraint=eastwest;whiteSpace=wrap;html=1;" parent="cliZu55Dn8Lg6LJt5rni-1" vertex="1">
          <mxGeometry y="52" width="230" height="26" as="geometry" />
        </mxCell>
        <mxCell id="cliZu55Dn8Lg6LJt5rni-5" value="getCommentsByUpvote(Article)" style="text;strokeColor=#82b366;fillColor=#d5e8d4;align=left;verticalAlign=top;spacingLeft=4;spacingRight=4;overflow=hidden;rotatable=0;points=[[0,0.5],[1,0.5]];portConstraint=eastwest;whiteSpace=wrap;html=1;" parent="cliZu55Dn8Lg6LJt5rni-1" vertex="1">
          <mxGeometry y="78" width="230" height="26" as="geometry" />
        </mxCell>
        <mxCell id="Lwo0r6n02PdEnx1lGQpE-3" value="getCommentsByDate(Article)" style="text;strokeColor=#82b366;fillColor=#d5e8d4;align=left;verticalAlign=top;spacingLeft=4;spacingRight=4;overflow=hidden;rotatable=0;points=[[0,0.5],[1,0.5]];portConstraint=eastwest;whiteSpace=wrap;html=1;" parent="cliZu55Dn8Lg6LJt5rni-1" vertex="1">
          <mxGeometry y="104" width="230" height="26" as="geometry" />
        </mxCell>
        <mxCell id="cliZu55Dn8Lg6LJt5rni-6" value="getUpvotes(Article)" style="text;strokeColor=#82b366;fillColor=#d5e8d4;align=left;verticalAlign=top;spacingLeft=4;spacingRight=4;overflow=hidden;rotatable=0;points=[[0,0.5],[1,0.5]];portConstraint=eastwest;whiteSpace=wrap;html=1;" parent="cliZu55Dn8Lg6LJt5rni-1" vertex="1">
          <mxGeometry y="130" width="230" height="26" as="geometry" />
        </mxCell>
        <mxCell id="Lwo0r6n02PdEnx1lGQpE-10" value="getUsersByUpvote(Article)" style="text;strokeColor=#82b366;fillColor=#d5e8d4;align=left;verticalAlign=top;spacingLeft=4;spacingRight=4;overflow=hidden;rotatable=0;points=[[0,0.5],[1,0.5]];portConstraint=eastwest;whiteSpace=wrap;html=1;" parent="cliZu55Dn8Lg6LJt5rni-1" vertex="1">
          <mxGeometry y="156" width="230" height="26" as="geometry" />
        </mxCell>
        <mxCell id="cliZu55Dn8Lg6LJt5rni-14" value="EditionServiceInterface" style="swimlane;fontStyle=1;align=center;verticalAlign=top;childLayout=stackLayout;horizontal=1;startSize=26;horizontalStack=0;resizeParent=1;resizeParentMax=0;resizeLast=0;collapsible=1;marginBottom=0;whiteSpace=wrap;html=1;fillColor=#d5e8d4;strokeColor=#82b366;" parent="1" vertex="1">
          <mxGeometry x="700" y="930" width="230" height="182" as="geometry" />
        </mxCell>
        <mxCell id="cliZu55Dn8Lg6LJt5rni-24" value="get(id)" style="text;strokeColor=#82b366;fillColor=#d5e8d4;align=left;verticalAlign=top;spacingLeft=4;spacingRight=4;overflow=hidden;rotatable=0;points=[[0,0.5],[1,0.5]];portConstraint=eastwest;whiteSpace=wrap;html=1;" parent="cliZu55Dn8Lg6LJt5rni-14" vertex="1">
          <mxGeometry y="26" width="230" height="26" as="geometry" />
        </mxCell>
        <mxCell id="cliZu55Dn8Lg6LJt5rni-15" value="getArticle(Edition): Article" style="text;strokeColor=#82b366;fillColor=#d5e8d4;align=left;verticalAlign=top;spacingLeft=4;spacingRight=4;overflow=hidden;rotatable=0;points=[[0,0.5],[1,0.5]];portConstraint=eastwest;whiteSpace=wrap;html=1;" parent="cliZu55Dn8Lg6LJt5rni-14" vertex="1">
          <mxGeometry y="52" width="230" height="26" as="geometry" />
        </mxCell>
        <mxCell id="cliZu55Dn8Lg6LJt5rni-19" value="getCommentsByUpvote(Edition)" style="text;strokeColor=#82b366;fillColor=#d5e8d4;align=left;verticalAlign=top;spacingLeft=4;spacingRight=4;overflow=hidden;rotatable=0;points=[[0,0.5],[1,0.5]];portConstraint=eastwest;whiteSpace=wrap;html=1;" parent="cliZu55Dn8Lg6LJt5rni-14" vertex="1">
          <mxGeometry y="78" width="230" height="26" as="geometry" />
        </mxCell>
        <mxCell id="Lwo0r6n02PdEnx1lGQpE-2" value="getCommentByDate(Edition)" style="text;strokeColor=#82b366;fillColor=#d5e8d4;align=left;verticalAlign=top;spacingLeft=4;spacingRight=4;overflow=hidden;rotatable=0;points=[[0,0.5],[1,0.5]];portConstraint=eastwest;whiteSpace=wrap;html=1;" parent="cliZu55Dn8Lg6LJt5rni-14" vertex="1">
          <mxGeometry y="104" width="230" height="26" as="geometry" />
        </mxCell>
        <mxCell id="cliZu55Dn8Lg6LJt5rni-18" value="getUpvotes(Edition)" style="text;strokeColor=#82b366;fillColor=#d5e8d4;align=left;verticalAlign=top;spacingLeft=4;spacingRight=4;overflow=hidden;rotatable=0;points=[[0,0.5],[1,0.5]];portConstraint=eastwest;whiteSpace=wrap;html=1;" parent="cliZu55Dn8Lg6LJt5rni-14" vertex="1">
          <mxGeometry y="130" width="230" height="26" as="geometry" />
        </mxCell>
        <mxCell id="Lwo0r6n02PdEnx1lGQpE-11" value="getUsersByUpvote(Edition)" style="text;strokeColor=#82b366;fillColor=#d5e8d4;align=left;verticalAlign=top;spacingLeft=4;spacingRight=4;overflow=hidden;rotatable=0;points=[[0,0.5],[1,0.5]];portConstraint=eastwest;whiteSpace=wrap;html=1;" parent="cliZu55Dn8Lg6LJt5rni-14" vertex="1">
          <mxGeometry y="156" width="230" height="26" as="geometry" />
        </mxCell>
        <mxCell id="cliZu55Dn8Lg6LJt5rni-20" value="CommentServiceInterface" style="swimlane;fontStyle=1;align=center;verticalAlign=top;childLayout=stackLayout;horizontal=1;startSize=26;horizontalStack=0;resizeParent=1;resizeParentMax=0;resizeLast=0;collapsible=1;marginBottom=0;whiteSpace=wrap;html=1;fillColor=#d5e8d4;strokeColor=#82b366;" parent="1" vertex="1">
          <mxGeometry x="950" y="930" width="170" height="104" as="geometry" />
        </mxCell>
        <mxCell id="cliZu55Dn8Lg6LJt5rni-23" value="get(id)" style="text;strokeColor=#82b366;fillColor=#d5e8d4;align=left;verticalAlign=top;spacingLeft=4;spacingRight=4;overflow=hidden;rotatable=0;points=[[0,0.5],[1,0.5]];portConstraint=eastwest;whiteSpace=wrap;html=1;" parent="cliZu55Dn8Lg6LJt5rni-20" vertex="1">
          <mxGeometry y="26" width="170" height="26" as="geometry" />
        </mxCell>
        <mxCell id="cliZu55Dn8Lg6LJt5rni-21" value="getSubject(Comment)" style="text;strokeColor=#82b366;fillColor=#d5e8d4;align=left;verticalAlign=top;spacingLeft=4;spacingRight=4;overflow=hidden;rotatable=0;points=[[0,0.5],[1,0.5]];portConstraint=eastwest;whiteSpace=wrap;html=1;" parent="cliZu55Dn8Lg6LJt5rni-20" vertex="1">
          <mxGeometry y="52" width="170" height="26" as="geometry" />
        </mxCell>
        <mxCell id="cliZu55Dn8Lg6LJt5rni-22" value="getUser(Article)" style="text;strokeColor=#82b366;fillColor=#d5e8d4;align=left;verticalAlign=top;spacingLeft=4;spacingRight=4;overflow=hidden;rotatable=0;points=[[0,0.5],[1,0.5]];portConstraint=eastwest;whiteSpace=wrap;html=1;" parent="cliZu55Dn8Lg6LJt5rni-20" vertex="1">
          <mxGeometry y="78" width="170" height="26" as="geometry" />
        </mxCell>
        <mxCell id="cliZu55Dn8Lg6LJt5rni-26" value="UpvoteServiceInterface" style="swimlane;fontStyle=1;align=center;verticalAlign=top;childLayout=stackLayout;horizontal=1;startSize=26;horizontalStack=0;resizeParent=1;resizeParentMax=0;resizeLast=0;collapsible=1;marginBottom=0;whiteSpace=wrap;html=1;fillColor=#d5e8d4;strokeColor=#82b366;" parent="1" vertex="1">
          <mxGeometry x="1140" y="930" width="170" height="104" as="geometry" />
        </mxCell>
        <mxCell id="cliZu55Dn8Lg6LJt5rni-27" value="get(id)" style="text;strokeColor=#82b366;fillColor=#d5e8d4;align=left;verticalAlign=top;spacingLeft=4;spacingRight=4;overflow=hidden;rotatable=0;points=[[0,0.5],[1,0.5]];portConstraint=eastwest;whiteSpace=wrap;html=1;" parent="cliZu55Dn8Lg6LJt5rni-26" vertex="1">
          <mxGeometry y="26" width="170" height="26" as="geometry" />
        </mxCell>
        <mxCell id="cliZu55Dn8Lg6LJt5rni-28" value="getSubject(Comment)" style="text;strokeColor=#82b366;fillColor=#d5e8d4;align=left;verticalAlign=top;spacingLeft=4;spacingRight=4;overflow=hidden;rotatable=0;points=[[0,0.5],[1,0.5]];portConstraint=eastwest;whiteSpace=wrap;html=1;" parent="cliZu55Dn8Lg6LJt5rni-26" vertex="1">
          <mxGeometry y="52" width="170" height="26" as="geometry" />
        </mxCell>
        <mxCell id="cliZu55Dn8Lg6LJt5rni-29" value="getUser(Article)" style="text;strokeColor=#82b366;fillColor=#d5e8d4;align=left;verticalAlign=top;spacingLeft=4;spacingRight=4;overflow=hidden;rotatable=0;points=[[0,0.5],[1,0.5]];portConstraint=eastwest;whiteSpace=wrap;html=1;" parent="cliZu55Dn8Lg6LJt5rni-26" vertex="1">
          <mxGeometry y="78" width="170" height="26" as="geometry" />
        </mxCell>
        <mxCell id="cliZu55Dn8Lg6LJt5rni-30" value="TagServiceInterface" style="swimlane;fontStyle=1;align=center;verticalAlign=top;childLayout=stackLayout;horizontal=1;startSize=26;horizontalStack=0;resizeParent=1;resizeParentMax=0;resizeLast=0;collapsible=1;marginBottom=0;whiteSpace=wrap;html=1;fillColor=#d5e8d4;strokeColor=#82b366;" parent="1" vertex="1">
          <mxGeometry x="1324" y="930" width="170" height="52" as="geometry" />
        </mxCell>
        <mxCell id="cliZu55Dn8Lg6LJt5rni-31" value="get(id)" style="text;strokeColor=#82b366;fillColor=#d5e8d4;align=left;verticalAlign=top;spacingLeft=4;spacingRight=4;overflow=hidden;rotatable=0;points=[[0,0.5],[1,0.5]];portConstraint=eastwest;whiteSpace=wrap;html=1;" parent="cliZu55Dn8Lg6LJt5rni-30" vertex="1">
          <mxGeometry y="26" width="170" height="26" as="geometry" />
        </mxCell>
        <mxCell id="cliZu55Dn8Lg6LJt5rni-34" value="CategoryServiceInterface" style="swimlane;fontStyle=1;align=center;verticalAlign=top;childLayout=stackLayout;horizontal=1;startSize=26;horizontalStack=0;resizeParent=1;resizeParentMax=0;resizeLast=0;collapsible=1;marginBottom=0;whiteSpace=wrap;html=1;fillColor=#d5e8d4;strokeColor=#82b366;" parent="1" vertex="1">
          <mxGeometry x="1510" y="930" width="250" height="104" as="geometry" />
        </mxCell>
        <mxCell id="cliZu55Dn8Lg6LJt5rni-35" value="get(id)" style="text;strokeColor=#82b366;fillColor=#d5e8d4;align=left;verticalAlign=top;spacingLeft=4;spacingRight=4;overflow=hidden;rotatable=0;points=[[0,0.5],[1,0.5]];portConstraint=eastwest;whiteSpace=wrap;html=1;" parent="cliZu55Dn8Lg6LJt5rni-34" vertex="1">
          <mxGeometry y="26" width="250" height="26" as="geometry" />
        </mxCell>
        <mxCell id="cliZu55Dn8Lg6LJt5rni-36" value="getParents(Category): Collection | false" style="text;strokeColor=#82b366;fillColor=#d5e8d4;align=left;verticalAlign=top;spacingLeft=4;spacingRight=4;overflow=hidden;rotatable=0;points=[[0,0.5],[1,0.5]];portConstraint=eastwest;whiteSpace=wrap;html=1;" parent="cliZu55Dn8Lg6LJt5rni-34" vertex="1">
          <mxGeometry y="52" width="250" height="26" as="geometry" />
        </mxCell>
        <mxCell id="TsAtWtG75XeKbMvXA45H-1" value="getChildren(Category): Collection | false" style="text;strokeColor=#82b366;fillColor=#d5e8d4;align=left;verticalAlign=top;spacingLeft=4;spacingRight=4;overflow=hidden;rotatable=0;points=[[0,0.5],[1,0.5]];portConstraint=eastwest;whiteSpace=wrap;html=1;" parent="cliZu55Dn8Lg6LJt5rni-34" vertex="1">
          <mxGeometry y="78" width="250" height="26" as="geometry" />
        </mxCell>
        <mxCell id="TsAtWtG75XeKbMvXA45H-2" value="SubscriptionServiceInterface" style="swimlane;fontStyle=1;align=center;verticalAlign=top;childLayout=stackLayout;horizontal=1;startSize=26;horizontalStack=0;resizeParent=1;resizeParentMax=0;resizeLast=0;collapsible=1;marginBottom=0;whiteSpace=wrap;html=1;fillColor=#d5e8d4;strokeColor=#82b366;" parent="1" vertex="1">
          <mxGeometry x="1780" y="930" width="420" height="156" as="geometry" />
        </mxCell>
        <mxCell id="TsAtWtG75XeKbMvXA45H-3" value="get(id)" style="text;strokeColor=#82b366;fillColor=#d5e8d4;align=left;verticalAlign=top;spacingLeft=4;spacingRight=4;overflow=hidden;rotatable=0;points=[[0,0.5],[1,0.5]];portConstraint=eastwest;whiteSpace=wrap;html=1;" parent="TsAtWtG75XeKbMvXA45H-2" vertex="1">
          <mxGeometry y="26" width="420" height="26" as="geometry" />
        </mxCell>
        <mxCell id="TsAtWtG75XeKbMvXA45H-7" value="getChannels(User | Subscription): Collection" style="text;strokeColor=#82b366;fillColor=#d5e8d4;align=left;verticalAlign=top;spacingLeft=4;spacingRight=4;overflow=hidden;rotatable=0;points=[[0,0.5],[1,0.5]];portConstraint=eastwest;whiteSpace=wrap;html=1;" parent="TsAtWtG75XeKbMvXA45H-2" vertex="1">
          <mxGeometry y="52" width="420" height="26" as="geometry" />
        </mxCell>
        <mxCell id="TsAtWtG75XeKbMvXA45H-4" value="getCategoryChannels(User | Subscription): Collection | Category" style="text;strokeColor=#82b366;fillColor=#d5e8d4;align=left;verticalAlign=top;spacingLeft=4;spacingRight=4;overflow=hidden;rotatable=0;points=[[0,0.5],[1,0.5]];portConstraint=eastwest;whiteSpace=wrap;html=1;" parent="TsAtWtG75XeKbMvXA45H-2" vertex="1">
          <mxGeometry y="78" width="420" height="26" as="geometry" />
        </mxCell>
        <mxCell id="TsAtWtG75XeKbMvXA45H-6" value="getTagChannels(User | Subscription): Collection | Tag" style="text;strokeColor=#82b366;fillColor=#d5e8d4;align=left;verticalAlign=top;spacingLeft=4;spacingRight=4;overflow=hidden;rotatable=0;points=[[0,0.5],[1,0.5]];portConstraint=eastwest;whiteSpace=wrap;html=1;" parent="TsAtWtG75XeKbMvXA45H-2" vertex="1">
          <mxGeometry y="104" width="420" height="26" as="geometry" />
        </mxCell>
        <mxCell id="TsAtWtG75XeKbMvXA45H-5" value="getUser(Subscription): Collection | false" style="text;strokeColor=#82b366;fillColor=#d5e8d4;align=left;verticalAlign=top;spacingLeft=4;spacingRight=4;overflow=hidden;rotatable=0;points=[[0,0.5],[1,0.5]];portConstraint=eastwest;whiteSpace=wrap;html=1;" parent="TsAtWtG75XeKbMvXA45H-2" vertex="1">
          <mxGeometry y="130" width="420" height="26" as="geometry" />
        </mxCell>
        <mxCell id="VYHHdRMAt-nK33qZPAF_-1" value="Subscriber" style="swimlane;fontStyle=1;align=center;verticalAlign=top;childLayout=stackLayout;horizontal=1;startSize=26;horizontalStack=0;resizeParent=1;resizeParentMax=0;resizeLast=0;collapsible=1;marginBottom=0;whiteSpace=wrap;html=1;fillColor=#d5e8d4;strokeColor=#82b366;" parent="1" vertex="1">
          <mxGeometry x="-280" y="210" width="160" height="52" as="geometry" />
        </mxCell>
        <mxCell id="VYHHdRMAt-nK33qZPAF_-5" value="" style="text;strokeColor=#82b366;fillColor=#d5e8d4;align=left;verticalAlign=top;spacingLeft=4;spacingRight=4;overflow=hidden;rotatable=0;points=[[0,0.5],[1,0.5]];portConstraint=eastwest;whiteSpace=wrap;html=1;" parent="VYHHdRMAt-nK33qZPAF_-1" vertex="1">
          <mxGeometry y="26" width="160" height="26" as="geometry" />
        </mxCell>
        <mxCell id="VYHHdRMAt-nK33qZPAF_-6" value="Author" style="swimlane;fontStyle=1;align=center;verticalAlign=top;childLayout=stackLayout;horizontal=1;startSize=26;horizontalStack=0;resizeParent=1;resizeParentMax=0;resizeLast=0;collapsible=1;marginBottom=0;whiteSpace=wrap;html=1;fillColor=#d5e8d4;strokeColor=#82b366;" parent="1" vertex="1">
          <mxGeometry x="-280" y="290" width="160" height="52" as="geometry" />
        </mxCell>
        <mxCell id="VYHHdRMAt-nK33qZPAF_-7" value="" style="text;strokeColor=#82b366;fillColor=#d5e8d4;align=left;verticalAlign=top;spacingLeft=4;spacingRight=4;overflow=hidden;rotatable=0;points=[[0,0.5],[1,0.5]];portConstraint=eastwest;whiteSpace=wrap;html=1;" parent="VYHHdRMAt-nK33qZPAF_-6" vertex="1">
          <mxGeometry y="26" width="160" height="26" as="geometry" />
        </mxCell>
        <mxCell id="VYHHdRMAt-nK33qZPAF_-8" value="Admin" style="swimlane;fontStyle=1;align=center;verticalAlign=top;childLayout=stackLayout;horizontal=1;startSize=26;horizontalStack=0;resizeParent=1;resizeParentMax=0;resizeLast=0;collapsible=1;marginBottom=0;whiteSpace=wrap;html=1;fillColor=#d5e8d4;strokeColor=#82b366;" parent="1" vertex="1">
          <mxGeometry x="-280" y="366" width="160" height="52" as="geometry" />
        </mxCell>
        <mxCell id="VYHHdRMAt-nK33qZPAF_-9" value="" style="text;strokeColor=#82b366;fillColor=#d5e8d4;align=left;verticalAlign=top;spacingLeft=4;spacingRight=4;overflow=hidden;rotatable=0;points=[[0,0.5],[1,0.5]];portConstraint=eastwest;whiteSpace=wrap;html=1;" parent="VYHHdRMAt-nK33qZPAF_-8" vertex="1">
          <mxGeometry y="26" width="160" height="26" as="geometry" />
        </mxCell>
        <mxCell id="Lwo0r6n02PdEnx1lGQpE-4" value="UserServiceInterface" style="swimlane;fontStyle=1;align=center;verticalAlign=top;childLayout=stackLayout;horizontal=1;startSize=26;horizontalStack=0;resizeParent=1;resizeParentMax=0;resizeLast=0;collapsible=1;marginBottom=0;whiteSpace=wrap;html=1;fillColor=#d5e8d4;strokeColor=#82b366;" parent="1" vertex="1">
          <mxGeometry x="200" y="930" width="230" height="156" as="geometry" />
        </mxCell>
        <mxCell id="Lwo0r6n02PdEnx1lGQpE-5" value="get(id)" style="text;strokeColor=#82b366;fillColor=#d5e8d4;align=left;verticalAlign=top;spacingLeft=4;spacingRight=4;overflow=hidden;rotatable=0;points=[[0,0.5],[1,0.5]];portConstraint=eastwest;whiteSpace=wrap;html=1;" parent="Lwo0r6n02PdEnx1lGQpE-4" vertex="1">
          <mxGeometry y="26" width="230" height="26" as="geometry" />
        </mxCell>
        <mxCell id="Lwo0r6n02PdEnx1lGQpE-6" value="getEditions(Article)" style="text;strokeColor=#82b366;fillColor=#d5e8d4;align=left;verticalAlign=top;spacingLeft=4;spacingRight=4;overflow=hidden;rotatable=0;points=[[0,0.5],[1,0.5]];portConstraint=eastwest;whiteSpace=wrap;html=1;" parent="Lwo0r6n02PdEnx1lGQpE-4" vertex="1">
          <mxGeometry y="52" width="230" height="26" as="geometry" />
        </mxCell>
        <mxCell id="Lwo0r6n02PdEnx1lGQpE-7" value="getCommentsByUpvote(Article)" style="text;strokeColor=#82b366;fillColor=#d5e8d4;align=left;verticalAlign=top;spacingLeft=4;spacingRight=4;overflow=hidden;rotatable=0;points=[[0,0.5],[1,0.5]];portConstraint=eastwest;whiteSpace=wrap;html=1;" parent="Lwo0r6n02PdEnx1lGQpE-4" vertex="1">
          <mxGeometry y="78" width="230" height="26" as="geometry" />
        </mxCell>
        <mxCell id="Lwo0r6n02PdEnx1lGQpE-8" value="getCommentsByDate(Article)" style="text;strokeColor=#82b366;fillColor=#d5e8d4;align=left;verticalAlign=top;spacingLeft=4;spacingRight=4;overflow=hidden;rotatable=0;points=[[0,0.5],[1,0.5]];portConstraint=eastwest;whiteSpace=wrap;html=1;" parent="Lwo0r6n02PdEnx1lGQpE-4" vertex="1">
          <mxGeometry y="104" width="230" height="26" as="geometry" />
        </mxCell>
        <mxCell id="Lwo0r6n02PdEnx1lGQpE-9" value="getUpvotes(Article)" style="text;strokeColor=#82b366;fillColor=#d5e8d4;align=left;verticalAlign=top;spacingLeft=4;spacingRight=4;overflow=hidden;rotatable=0;points=[[0,0.5],[1,0.5]];portConstraint=eastwest;whiteSpace=wrap;html=1;" parent="Lwo0r6n02PdEnx1lGQpE-4" vertex="1">
          <mxGeometry y="130" width="230" height="26" as="geometry" />
        </mxCell>
        <mxCell id="Lwo0r6n02PdEnx1lGQpE-12" value="upvote types" style="swimlane;fontStyle=1;align=center;verticalAlign=top;childLayout=stackLayout;horizontal=1;startSize=26;horizontalStack=0;resizeParent=1;resizeParentMax=0;resizeLast=0;collapsible=1;marginBottom=0;whiteSpace=wrap;html=1;fillColor=#f8cecc;strokeColor=#b85450;" parent="1" vertex="1">
          <mxGeometry x="890" y="510" width="130" height="104" as="geometry" />
        </mxCell>
        <mxCell id="Lwo0r6n02PdEnx1lGQpE-13" value="comment" style="text;strokeColor=#b85450;fillColor=#f8cecc;align=left;verticalAlign=top;spacingLeft=4;spacingRight=4;overflow=hidden;rotatable=0;points=[[0,0.5],[1,0.5]];portConstraint=eastwest;whiteSpace=wrap;html=1;" parent="Lwo0r6n02PdEnx1lGQpE-12" vertex="1">
          <mxGeometry y="26" width="130" height="26" as="geometry" />
        </mxCell>
        <mxCell id="Lwo0r6n02PdEnx1lGQpE-15" value="edition" style="text;strokeColor=#b85450;fillColor=#f8cecc;align=left;verticalAlign=top;spacingLeft=4;spacingRight=4;overflow=hidden;rotatable=0;points=[[0,0.5],[1,0.5]];portConstraint=eastwest;whiteSpace=wrap;html=1;" parent="Lwo0r6n02PdEnx1lGQpE-12" vertex="1">
          <mxGeometry y="52" width="130" height="26" as="geometry" />
        </mxCell>
        <mxCell id="Lwo0r6n02PdEnx1lGQpE-16" value="article" style="text;strokeColor=#b85450;fillColor=#f8cecc;align=left;verticalAlign=top;spacingLeft=4;spacingRight=4;overflow=hidden;rotatable=0;points=[[0,0.5],[1,0.5]];portConstraint=eastwest;whiteSpace=wrap;html=1;" parent="Lwo0r6n02PdEnx1lGQpE-12" vertex="1">
          <mxGeometry y="78" width="130" height="26" as="geometry" />
        </mxCell>
        <mxCell id="Lwo0r6n02PdEnx1lGQpE-18" value="comment types" style="swimlane;fontStyle=1;align=center;verticalAlign=top;childLayout=stackLayout;horizontal=1;startSize=26;horizontalStack=0;resizeParent=1;resizeParentMax=0;resizeLast=0;collapsible=1;marginBottom=0;whiteSpace=wrap;html=1;fillColor=#f8cecc;strokeColor=#b85450;" parent="1" vertex="1">
          <mxGeometry x="740" y="510" width="130" height="78" as="geometry" />
        </mxCell>
        <mxCell id="Lwo0r6n02PdEnx1lGQpE-20" value="edition" style="text;strokeColor=#b85450;fillColor=#f8cecc;align=left;verticalAlign=top;spacingLeft=4;spacingRight=4;overflow=hidden;rotatable=0;points=[[0,0.5],[1,0.5]];portConstraint=eastwest;whiteSpace=wrap;html=1;" parent="Lwo0r6n02PdEnx1lGQpE-18" vertex="1">
          <mxGeometry y="26" width="130" height="26" as="geometry" />
        </mxCell>
        <mxCell id="Lwo0r6n02PdEnx1lGQpE-21" value="article" style="text;strokeColor=#b85450;fillColor=#f8cecc;align=left;verticalAlign=top;spacingLeft=4;spacingRight=4;overflow=hidden;rotatable=0;points=[[0,0.5],[1,0.5]];portConstraint=eastwest;whiteSpace=wrap;html=1;" parent="Lwo0r6n02PdEnx1lGQpE-18" vertex="1">
          <mxGeometry y="52" width="130" height="26" as="geometry" />
        </mxCell>
        <mxCell id="GMJaZpYrx5YYMAtFqja4-1" value="atcl/edtn status" style="swimlane;fontStyle=1;align=center;verticalAlign=top;childLayout=stackLayout;horizontal=1;startSize=26;horizontalStack=0;resizeParent=1;resizeParentMax=0;resizeLast=0;collapsible=1;marginBottom=0;whiteSpace=wrap;html=1;fillColor=#f8cecc;strokeColor=#b85450;" parent="1" vertex="1">
          <mxGeometry x="590" y="510" width="130" height="104" as="geometry" />
        </mxCell>
        <mxCell id="GMJaZpYrx5YYMAtFqja4-2" value="draft" style="text;strokeColor=#b85450;fillColor=#f8cecc;align=left;verticalAlign=top;spacingLeft=4;spacingRight=4;overflow=hidden;rotatable=0;points=[[0,0.5],[1,0.5]];portConstraint=eastwest;whiteSpace=wrap;html=1;" parent="GMJaZpYrx5YYMAtFqja4-1" vertex="1">
          <mxGeometry y="26" width="130" height="26" as="geometry" />
        </mxCell>
        <mxCell id="GMJaZpYrx5YYMAtFqja4-3" value="private" style="text;strokeColor=#b85450;fillColor=#f8cecc;align=left;verticalAlign=top;spacingLeft=4;spacingRight=4;overflow=hidden;rotatable=0;points=[[0,0.5],[1,0.5]];portConstraint=eastwest;whiteSpace=wrap;html=1;" parent="GMJaZpYrx5YYMAtFqja4-1" vertex="1">
          <mxGeometry y="52" width="130" height="26" as="geometry" />
        </mxCell>
        <mxCell id="GMJaZpYrx5YYMAtFqja4-4" value="public" style="text;strokeColor=#b85450;fillColor=#f8cecc;align=left;verticalAlign=top;spacingLeft=4;spacingRight=4;overflow=hidden;rotatable=0;points=[[0,0.5],[1,0.5]];portConstraint=eastwest;whiteSpace=wrap;html=1;" parent="GMJaZpYrx5YYMAtFqja4-1" vertex="1">
          <mxGeometry y="78" width="130" height="26" as="geometry" />
        </mxCell>
        <mxCell id="vaSnlmAfPE0_I5rGUTRg-2" value="comment status" style="swimlane;fontStyle=1;align=center;verticalAlign=top;childLayout=stackLayout;horizontal=1;startSize=26;horizontalStack=0;resizeParent=1;resizeParentMax=0;resizeLast=0;collapsible=1;marginBottom=0;whiteSpace=wrap;html=1;fillColor=#f8cecc;strokeColor=#b85450;" vertex="1" parent="1">
          <mxGeometry x="1040" y="510" width="130" height="78" as="geometry" />
        </mxCell>
        <mxCell id="vaSnlmAfPE0_I5rGUTRg-3" value="draft" style="text;strokeColor=#b85450;fillColor=#f8cecc;align=left;verticalAlign=top;spacingLeft=4;spacingRight=4;overflow=hidden;rotatable=0;points=[[0,0.5],[1,0.5]];portConstraint=eastwest;whiteSpace=wrap;html=1;" vertex="1" parent="vaSnlmAfPE0_I5rGUTRg-2">
          <mxGeometry y="26" width="130" height="26" as="geometry" />
        </mxCell>
        <mxCell id="vaSnlmAfPE0_I5rGUTRg-5" value="public" style="text;strokeColor=#b85450;fillColor=#f8cecc;align=left;verticalAlign=top;spacingLeft=4;spacingRight=4;overflow=hidden;rotatable=0;points=[[0,0.5],[1,0.5]];portConstraint=eastwest;whiteSpace=wrap;html=1;" vertex="1" parent="vaSnlmAfPE0_I5rGUTRg-2">
          <mxGeometry y="52" width="130" height="26" as="geometry" />
        </mxCell>
      </root>
    </mxGraphModel>
  </diagram>
  <diagram id="nfX7TJw-ghyVIiPeJnWL" name="Site Map">
    <mxGraphModel dx="1781" dy="516" grid="1" gridSize="10" guides="1" tooltips="1" connect="1" arrows="1" fold="1" page="1" pageScale="1" pageWidth="827" pageHeight="1169" math="0" shadow="0">
      <root>
        <mxCell id="0" />
        <mxCell id="1" parent="0" />
        <mxCell id="aPcvRg7ZbPD7gUvcJCDu-1" value="Homepage" style="html=1;whiteSpace=wrap;" parent="1" vertex="1">
          <mxGeometry x="280" y="350" width="110" height="50" as="geometry" />
        </mxCell>
        <mxCell id="aPcvRg7ZbPD7gUvcJCDu-2" value="Subscribe" style="html=1;whiteSpace=wrap;" parent="1" vertex="1">
          <mxGeometry x="414" y="270" width="110" height="50" as="geometry" />
        </mxCell>
        <mxCell id="aPcvRg7ZbPD7gUvcJCDu-3" value="Articles" style="html=1;whiteSpace=wrap;" parent="1" vertex="1">
          <mxGeometry x="280" y="270" width="110" height="50" as="geometry" />
        </mxCell>
        <mxCell id="aPcvRg7ZbPD7gUvcJCDu-4" value="Articles/Category" style="html=1;whiteSpace=wrap;" parent="1" vertex="1">
          <mxGeometry x="280" y="190" width="110" height="50" as="geometry" />
        </mxCell>
        <mxCell id="aPcvRg7ZbPD7gUvcJCDu-5" value="Article &amp;amp; Editions" style="html=1;whiteSpace=wrap;" parent="1" vertex="1">
          <mxGeometry x="280" y="110" width="110" height="50" as="geometry" />
        </mxCell>
        <mxCell id="aPcvRg7ZbPD7gUvcJCDu-7" value="Register Form" style="html=1;whiteSpace=wrap;" parent="1" vertex="1">
          <mxGeometry x="550" y="270" width="110" height="50" as="geometry" />
        </mxCell>
        <mxCell id="aPcvRg7ZbPD7gUvcJCDu-8" value="Admin" style="html=1;whiteSpace=wrap;" parent="1" vertex="1">
          <mxGeometry x="20" y="270" width="110" height="50" as="geometry" />
        </mxCell>
        <mxCell id="aPcvRg7ZbPD7gUvcJCDu-11" value="Users" style="html=1;whiteSpace=wrap;" parent="1" vertex="1">
          <mxGeometry x="-60" y="190" width="110" height="50" as="geometry" />
        </mxCell>
        <mxCell id="aPcvRg7ZbPD7gUvcJCDu-12" value="User" style="html=1;whiteSpace=wrap;" parent="1" vertex="1">
          <mxGeometry x="-60" y="110" width="110" height="50" as="geometry" />
        </mxCell>
        <mxCell id="aPcvRg7ZbPD7gUvcJCDu-13" value="Articles" style="html=1;whiteSpace=wrap;" parent="1" vertex="1">
          <mxGeometry x="110" y="190" width="110" height="50" as="geometry" />
        </mxCell>
        <mxCell id="aPcvRg7ZbPD7gUvcJCDu-14" value="Article &amp;amp; Editions" style="html=1;whiteSpace=wrap;" parent="1" vertex="1">
          <mxGeometry x="110" y="110" width="110" height="50" as="geometry" />
        </mxCell>
        <mxCell id="UYneaIAStMqp6twBvow5-1" value="Categories" style="html=1;whiteSpace=wrap;" vertex="1" parent="1">
          <mxGeometry x="-210" y="190" width="110" height="50" as="geometry" />
        </mxCell>
        <mxCell id="UYneaIAStMqp6twBvow5-2" value="Tags" style="html=1;whiteSpace=wrap;" vertex="1" parent="1">
          <mxGeometry x="-360" y="190" width="110" height="50" as="geometry" />
        </mxCell>
      </root>
    </mxGraphModel>
  </diagram>
  <diagram id="yA-siPEsXTuu1vVqILtq" name="UserEditor">
    <mxGraphModel dx="1363" dy="737" grid="1" gridSize="10" guides="1" tooltips="1" connect="1" arrows="1" fold="1" page="1" pageScale="1" pageWidth="827" pageHeight="1169" math="0" shadow="0">
      <root>
        <mxCell id="0" />
        <mxCell id="1" parent="0" />
        <mxCell id="4FY1aEa0GVLqJCPLgyc_-1" value="UserEditor" style="html=1;whiteSpace=wrap;fillColor=#dae8fc;strokeColor=#6c8ebf;verticalAlign=top;" vertex="1" parent="1">
          <mxGeometry x="100" y="140" width="570" height="240" as="geometry" />
        </mxCell>
        <mxCell id="f8bBFOAr22liSiU8jkWR-1" value="UserName" style="html=1;whiteSpace=wrap;" vertex="1" parent="1">
          <mxGeometry x="415" y="210" width="220" height="50" as="geometry" />
        </mxCell>
        <mxCell id="Wr_WZxoD-I5wUnLGUAMU-1" value="Role" style="html=1;whiteSpace=wrap;" vertex="1" parent="1">
          <mxGeometry x="145" y="290" width="220" height="50" as="geometry" />
        </mxCell>
        <mxCell id="2eL2RcCz1GrEsMhx8eeG-1" value="email Address" style="html=1;whiteSpace=wrap;" vertex="1" parent="1">
          <mxGeometry x="145" y="210" width="220" height="50" as="geometry" />
        </mxCell>
        <mxCell id="2eL2RcCz1GrEsMhx8eeG-2" value="Permissions" style="html=1;whiteSpace=wrap;" vertex="1" parent="1">
          <mxGeometry x="415" y="290" width="220" height="50" as="geometry" />
        </mxCell>
      </root>
    </mxGraphModel>
  </diagram>
  <diagram id="rQ4hV7eHZDdw5K13XJJL" name="ArticleEditor">
    <mxGraphModel dx="2190" dy="1906" grid="1" gridSize="10" guides="1" tooltips="1" connect="1" arrows="1" fold="1" page="1" pageScale="1" pageWidth="827" pageHeight="1169" math="0" shadow="0">
      <root>
        <mxCell id="0" />
        <mxCell id="1" parent="0" />
        <mxCell id="nNRgRvRuUC7wT_pIvOr4-1" value="ArticleEditor" style="html=1;whiteSpace=wrap;verticalAlign=top;fillColor=#dae8fc;strokeColor=#6c8ebf;" parent="1" vertex="1">
          <mxGeometry x="80" y="20" width="800" height="780" as="geometry" />
        </mxCell>
        <mxCell id="nNRgRvRuUC7wT_pIvOr4-2" value="Content" style="html=1;whiteSpace=wrap;" parent="1" vertex="1">
          <mxGeometry x="230" y="270" width="460" height="250" as="geometry" />
        </mxCell>
        <mxCell id="nNRgRvRuUC7wT_pIvOr4-3" value="Title" style="html=1;whiteSpace=wrap;" parent="1" vertex="1">
          <mxGeometry x="230" y="90" width="460" height="50" as="geometry" />
        </mxCell>
        <mxCell id="3cvtKmmnTZxbpI3TYtSK-1" value="name" style="html=1;whiteSpace=wrap;" parent="1" vertex="1">
          <mxGeometry x="710" y="90" width="150" height="30" as="geometry" />
        </mxCell>
        <mxCell id="T9blW4cdI_ByMigpmcG_-1" value="New Edition" style="html=1;whiteSpace=wrap;" parent="1" vertex="1">
          <mxGeometry x="100" y="90" width="110" height="40" as="geometry" />
        </mxCell>
        <mxCell id="dS6vNWNDisYAlfBBnxIC-2" style="edgeStyle=orthogonalEdgeStyle;rounded=1;orthogonalLoop=1;jettySize=auto;html=1;entryX=1;entryY=0.5;entryDx=0;entryDy=0;curved=0;" edge="1" parent="1" source="T9blW4cdI_ByMigpmcG_-2" target="T9blW4cdI_ByMigpmcG_-3">
          <mxGeometry relative="1" as="geometry" />
        </mxCell>
        <mxCell id="T9blW4cdI_ByMigpmcG_-2" value="Editions" style="html=1;whiteSpace=wrap;" parent="1" vertex="1">
          <mxGeometry x="100" y="140" width="110" height="40" as="geometry" />
        </mxCell>
        <mxCell id="T9blW4cdI_ByMigpmcG_-3" value="Editions (ordered by publish date)" style="html=1;whiteSpace=wrap;verticalAlign=top;" parent="1" vertex="1">
          <mxGeometry x="-390" y="-70" width="310" height="410" as="geometry" />
        </mxCell>
        <mxCell id="70qJVvRleX-udgjITjVH-7" value="" style="group" parent="1" vertex="1" connectable="0">
          <mxGeometry x="-370" y="100" width="270" height="60" as="geometry" />
        </mxCell>
        <mxCell id="70qJVvRleX-udgjITjVH-4" value="Edition #1" style="html=1;whiteSpace=wrap;verticalAlign=top;align=left;spacing=13;" parent="70qJVvRleX-udgjITjVH-7" vertex="1">
          <mxGeometry width="270" height="60" as="geometry" />
        </mxCell>
        <mxCell id="70qJVvRleX-udgjITjVH-5" value="edit" style="html=1;whiteSpace=wrap;" parent="70qJVvRleX-udgjITjVH-7" vertex="1">
          <mxGeometry x="100" y="15" width="70" height="30" as="geometry" />
        </mxCell>
        <mxCell id="70qJVvRleX-udgjITjVH-6" value="status" style="html=1;whiteSpace=wrap;" parent="70qJVvRleX-udgjITjVH-7" vertex="1">
          <mxGeometry x="180" y="15" width="70" height="30" as="geometry" />
        </mxCell>
        <mxCell id="70qJVvRleX-udgjITjVH-8" value="" style="group" parent="1" vertex="1" connectable="0">
          <mxGeometry x="-370" y="30" width="270" height="60" as="geometry" />
        </mxCell>
        <mxCell id="70qJVvRleX-udgjITjVH-1" value="Edition #2" style="html=1;whiteSpace=wrap;verticalAlign=top;align=left;spacing=13;" parent="70qJVvRleX-udgjITjVH-8" vertex="1">
          <mxGeometry width="270" height="60" as="geometry" />
        </mxCell>
        <mxCell id="70qJVvRleX-udgjITjVH-2" value="edit" style="html=1;whiteSpace=wrap;" parent="70qJVvRleX-udgjITjVH-8" vertex="1">
          <mxGeometry x="100" y="15" width="70" height="30" as="geometry" />
        </mxCell>
        <mxCell id="70qJVvRleX-udgjITjVH-3" value="status" style="html=1;whiteSpace=wrap;" parent="70qJVvRleX-udgjITjVH-8" vertex="1">
          <mxGeometry x="180" y="15" width="70" height="30" as="geometry" />
        </mxCell>
        <mxCell id="70qJVvRleX-udgjITjVH-9" value="" style="group" parent="1" vertex="1" connectable="0">
          <mxGeometry x="-370" y="-40" width="270" height="60" as="geometry" />
        </mxCell>
        <mxCell id="T9blW4cdI_ByMigpmcG_-4" value="Edition #3" style="html=1;whiteSpace=wrap;verticalAlign=top;align=left;spacing=13;" parent="70qJVvRleX-udgjITjVH-9" vertex="1">
          <mxGeometry width="270" height="60" as="geometry" />
        </mxCell>
        <mxCell id="T9blW4cdI_ByMigpmcG_-5" value="edit" style="html=1;whiteSpace=wrap;" parent="70qJVvRleX-udgjITjVH-9" vertex="1">
          <mxGeometry x="100" y="15" width="70" height="30" as="geometry" />
        </mxCell>
        <mxCell id="T9blW4cdI_ByMigpmcG_-6" value="status" style="html=1;whiteSpace=wrap;" parent="70qJVvRleX-udgjITjVH-9" vertex="1">
          <mxGeometry x="180" y="15" width="70" height="30" as="geometry" />
        </mxCell>
        <mxCell id="6BzwgyQkdso5bvDWdckC-7" value="" style="edgeStyle=orthogonalEdgeStyle;rounded=0;orthogonalLoop=1;jettySize=auto;html=1;" edge="1" parent="1" target="6BzwgyQkdso5bvDWdckC-6">
          <mxGeometry relative="1" as="geometry">
            <mxPoint x="290" y="585" as="sourcePoint" />
          </mxGeometry>
        </mxCell>
        <mxCell id="N9RfSHT0HToawd95XdMm-2" value="" style="edgeStyle=orthogonalEdgeStyle;rounded=0;orthogonalLoop=1;jettySize=auto;html=1;" edge="1" parent="1" target="N9RfSHT0HToawd95XdMm-1">
          <mxGeometry relative="1" as="geometry">
            <mxPoint x="540" y="610" as="sourcePoint" />
          </mxGeometry>
        </mxCell>
        <mxCell id="wRfyc5UGyzQfLjZdVCGA-1" value="Article/Edition Comments" style="html=1;whiteSpace=wrap;verticalAlign=top;" vertex="1" parent="1">
          <mxGeometry x="230" y="535" width="460" height="195" as="geometry" />
        </mxCell>
        <mxCell id="pspDeUDWI_piNfIl98HT-1" value="CommentEditor" style="html=1;whiteSpace=wrap;fillColor=#dae8fc;strokeColor=#6c8ebf;" vertex="1" parent="1">
          <mxGeometry x="255" y="580" width="410" height="60" as="geometry" />
        </mxCell>
        <mxCell id="i4oAsgQHHUwvs9yx0wbi-1" value="Excerpt" style="html=1;whiteSpace=wrap;" vertex="1" parent="1">
          <mxGeometry x="230" y="155" width="460" height="95" as="geometry" />
        </mxCell>
        <mxCell id="wRfyc5UGyzQfLjZdVCGA-2" value="CommentEditor" style="html=1;whiteSpace=wrap;fillColor=#dae8fc;strokeColor=#6c8ebf;" vertex="1" parent="1">
          <mxGeometry x="255" y="650" width="410" height="60" as="geometry" />
        </mxCell>
        <mxCell id="wRfyc5UGyzQfLjZdVCGA-3" value="TagAssigner" style="html=1;whiteSpace=wrap;fillColor=#dae8fc;strokeColor=#6c8ebf;" vertex="1" parent="1">
          <mxGeometry x="710" y="220" width="150" height="60" as="geometry" />
        </mxCell>
        <mxCell id="dS6vNWNDisYAlfBBnxIC-1" value="CategoryAssigner" style="html=1;whiteSpace=wrap;fillColor=#dae8fc;strokeColor=#6c8ebf;" vertex="1" parent="1">
          <mxGeometry x="710" y="140" width="150" height="60" as="geometry" />
        </mxCell>
        <mxCell id="dS6vNWNDisYAlfBBnxIC-5" style="edgeStyle=orthogonalEdgeStyle;rounded=1;orthogonalLoop=1;jettySize=auto;html=1;entryX=1;entryY=0.5;entryDx=0;entryDy=0;curved=0;" edge="1" parent="1" source="dS6vNWNDisYAlfBBnxIC-3" target="dS6vNWNDisYAlfBBnxIC-4">
          <mxGeometry relative="1" as="geometry" />
        </mxCell>
        <mxCell id="dS6vNWNDisYAlfBBnxIC-3" value="Upvotes" style="html=1;whiteSpace=wrap;" vertex="1" parent="1">
          <mxGeometry x="100" y="190" width="110" height="40" as="geometry" />
        </mxCell>
        <mxCell id="dS6vNWNDisYAlfBBnxIC-4" value="UpvotesList" style="html=1;whiteSpace=wrap;verticalAlign=middle;fillColor=#dae8fc;strokeColor=#6c8ebf;" vertex="1" parent="1">
          <mxGeometry x="-220" y="360" width="140" height="60" as="geometry" />
        </mxCell>
      </root>
    </mxGraphModel>
  </diagram>
  <diagram id="um39x80W-sSMGRFWocox" name="CommentEditor">
    <mxGraphModel dx="1004" dy="543" grid="1" gridSize="10" guides="1" tooltips="1" connect="1" arrows="1" fold="1" page="1" pageScale="1" pageWidth="827" pageHeight="1169" math="0" shadow="0">
      <root>
        <mxCell id="0" />
        <mxCell id="1" parent="0" />
        <mxCell id="zsgMIzKSRa6-KNk0WXJ6-2" value="CommentEditor" style="html=1;whiteSpace=wrap;verticalAlign=top;fillColor=#dae8fc;strokeColor=#6c8ebf;" vertex="1" parent="1">
          <mxGeometry x="260" y="80" width="390" height="160" as="geometry" />
        </mxCell>
        <mxCell id="zsgMIzKSRa6-KNk0WXJ6-3" value="User" style="html=1;whiteSpace=wrap;" vertex="1" parent="1">
          <mxGeometry x="280" y="110" width="100" height="50" as="geometry" />
        </mxCell>
        <mxCell id="zsgMIzKSRa6-KNk0WXJ6-4" value="Content" style="html=1;whiteSpace=wrap;" vertex="1" parent="1">
          <mxGeometry x="400" y="110" width="230" height="50" as="geometry" />
        </mxCell>
        <mxCell id="zsgMIzKSRa6-KNk0WXJ6-11" style="edgeStyle=orthogonalEdgeStyle;rounded=0;orthogonalLoop=1;jettySize=auto;html=1;entryX=1;entryY=0.5;entryDx=0;entryDy=0;" edge="1" parent="1" source="zsgMIzKSRa6-KNk0WXJ6-5" target="zsgMIzKSRa6-KNk0WXJ6-6">
          <mxGeometry relative="1" as="geometry" />
        </mxCell>
        <mxCell id="zsgMIzKSRa6-KNk0WXJ6-5" value="Upvotes" style="html=1;whiteSpace=wrap;" vertex="1" parent="1">
          <mxGeometry x="280" y="170" width="60" height="50" as="geometry" />
        </mxCell>
        <mxCell id="zsgMIzKSRa6-KNk0WXJ6-6" value="Users" style="html=1;whiteSpace=wrap;" vertex="1" parent="1">
          <mxGeometry x="140" y="170" width="60" height="50" as="geometry" />
        </mxCell>
        <mxCell id="zsgMIzKSRa6-KNk0WXJ6-7" value="Status" style="html=1;whiteSpace=wrap;" vertex="1" parent="1">
          <mxGeometry x="570" y="170" width="60" height="50" as="geometry" />
        </mxCell>
        <mxCell id="zsgMIzKSRa6-KNk0WXJ6-10" style="edgeStyle=orthogonalEdgeStyle;rounded=0;orthogonalLoop=1;jettySize=auto;html=1;" edge="1" parent="1" source="zsgMIzKSRa6-KNk0WXJ6-8" target="zsgMIzKSRa6-KNk0WXJ6-9">
          <mxGeometry relative="1" as="geometry" />
        </mxCell>
        <mxCell id="zsgMIzKSRa6-KNk0WXJ6-8" value="Delete" style="html=1;whiteSpace=wrap;" vertex="1" parent="1">
          <mxGeometry x="500" y="170" width="60" height="50" as="geometry" />
        </mxCell>
        <mxCell id="zsgMIzKSRa6-KNk0WXJ6-9" value="State Reason" style="html=1;whiteSpace=wrap;" vertex="1" parent="1">
          <mxGeometry x="500" y="300" width="60" height="50" as="geometry" />
        </mxCell>
      </root>
    </mxGraphModel>
  </diagram>
  <diagram id="uhIUr6efPGYrrqLDtp-x" name="TagAssigner">
    <mxGraphModel dx="954" dy="516" grid="1" gridSize="10" guides="1" tooltips="1" connect="1" arrows="1" fold="1" page="1" pageScale="1" pageWidth="827" pageHeight="1169" math="0" shadow="0">
      <root>
        <mxCell id="0" />
        <mxCell id="1" parent="0" />
        <mxCell id="fDfEjzK4QOKCuTL0ocLf-1" value="TagAssigner" style="html=1;whiteSpace=wrap;verticalAlign=top;align=center;spacing=10;fillColor=#dae8fc;strokeColor=#6c8ebf;" vertex="1" parent="1">
          <mxGeometry x="339" y="140" width="211" height="170" as="geometry" />
        </mxCell>
        <mxCell id="fDfEjzK4QOKCuTL0ocLf-2" value="new" style="html=1;whiteSpace=wrap;" vertex="1" parent="1">
          <mxGeometry x="349" y="180" width="191" height="25" as="geometry" />
        </mxCell>
        <mxCell id="4aOTAE5eA-1XeBDQJggR-1" value="Tags (checklist)" style="html=1;whiteSpace=wrap;" vertex="1" parent="1">
          <mxGeometry x="349" y="220" width="191" height="70" as="geometry" />
        </mxCell>
      </root>
    </mxGraphModel>
  </diagram>
  <diagram id="5zIVyFhGZa4L13DZSAkO" name="CategoryAssigner">
    <mxGraphModel dx="954" dy="516" grid="1" gridSize="10" guides="1" tooltips="1" connect="1" arrows="1" fold="1" page="1" pageScale="1" pageWidth="827" pageHeight="1169" math="0" shadow="0">
      <root>
        <mxCell id="0" />
        <mxCell id="1" parent="0" />
        <mxCell id="qGOIDdSmPe9iWvTC3RM8-1" value="&lt;div align=&quot;center&quot;&gt;CategoryAssigner&lt;/div&gt;" style="html=1;whiteSpace=wrap;verticalAlign=top;align=center;spacing=12;fillColor=#dae8fc;strokeColor=#6c8ebf;" vertex="1" parent="1">
          <mxGeometry x="270" y="90" width="260" height="170" as="geometry" />
        </mxCell>
        <mxCell id="qGOIDdSmPe9iWvTC3RM8-2" value="new" style="html=1;whiteSpace=wrap;" vertex="1" parent="1">
          <mxGeometry x="280" y="140" width="240" height="25" as="geometry" />
        </mxCell>
        <mxCell id="A1cecxq0TZy75rhKCXHh-1" value="Categories (checklist)" style="html=1;whiteSpace=wrap;" vertex="1" parent="1">
          <mxGeometry x="280" y="180" width="240" height="70" as="geometry" />
        </mxCell>
      </root>
    </mxGraphModel>
  </diagram>
  <diagram id="0qN_Gk6mhuC9LnB1Y_Er" name="UpvotesList">
    <mxGraphModel dx="2020" dy="645" grid="1" gridSize="10" guides="1" tooltips="1" connect="1" arrows="1" fold="1" page="1" pageScale="1" pageWidth="827" pageHeight="1169" math="0" shadow="0">
      <root>
        <mxCell id="0" />
        <mxCell id="1" parent="0" />
        <mxCell id="W9YOpyyN-hmO-yaYmv0e-1" value="UpvotesList" style="html=1;whiteSpace=wrap;verticalAlign=top;fillColor=#dae8fc;strokeColor=#6c8ebf;" vertex="1" parent="1">
          <mxGeometry x="-560" y="230" width="310" height="150" as="geometry" />
        </mxCell>
        <mxCell id="W9YOpyyN-hmO-yaYmv0e-2" value="User" style="html=1;whiteSpace=wrap;verticalAlign=top;" vertex="1" parent="1">
          <mxGeometry x="-540" y="270" width="270" height="90" as="geometry" />
        </mxCell>
        <mxCell id="W9YOpyyN-hmO-yaYmv0e-3" value="Profile Pic" style="html=1;whiteSpace=wrap;" vertex="1" parent="1">
          <mxGeometry x="-530" y="300" width="90" height="50" as="geometry" />
        </mxCell>
        <mxCell id="W9YOpyyN-hmO-yaYmv0e-4" value="Username" style="html=1;whiteSpace=wrap;" vertex="1" parent="1">
          <mxGeometry x="-430" y="300" width="150" height="50" as="geometry" />
        </mxCell>
      </root>
    </mxGraphModel>
  </diagram>
  <diagram id="1T8j1X_UZ6teVuWs4BG4" name="SubscriptionForm">
    <mxGraphModel dx="1468" dy="794" grid="1" gridSize="10" guides="1" tooltips="1" connect="1" arrows="1" fold="1" page="1" pageScale="1" pageWidth="827" pageHeight="1169" math="0" shadow="0">
      <root>
        <mxCell id="0" />
        <mxCell id="1" parent="0" />
        <mxCell id="MWAJZ7EO9vTVytpva--l-1" value="SubscriptionForm" style="html=1;whiteSpace=wrap;verticalAlign=top;fillColor=#dae8fc;strokeColor=#6c8ebf;" vertex="1" parent="1">
          <mxGeometry x="245" y="210" width="420" height="220" as="geometry" />
        </mxCell>
        <mxCell id="MWAJZ7EO9vTVytpva--l-2" value="email address" style="html=1;whiteSpace=wrap;" vertex="1" parent="1">
          <mxGeometry x="270" y="260" width="370" height="50" as="geometry" />
        </mxCell>
        <mxCell id="MWAJZ7EO9vTVytpva--l-3" value="Submit" style="html=1;whiteSpace=wrap;" vertex="1" parent="1">
          <mxGeometry x="270" y="320" width="370" height="50" as="geometry" />
        </mxCell>
        <mxCell id="phqu89tL4LC_cru6Smij-2" value="SubscriptionForm" style="html=1;whiteSpace=wrap;verticalAlign=top;fillColor=#dae8fc;strokeColor=#6c8ebf;" vertex="1" parent="1">
          <mxGeometry x="770" y="210" width="420" height="420" as="geometry" />
        </mxCell>
        <mxCell id="phqu89tL4LC_cru6Smij-3" value="email address" style="html=1;whiteSpace=wrap;" vertex="1" parent="1">
          <mxGeometry x="795" y="260" width="370" height="50" as="geometry" />
        </mxCell>
        <mxCell id="phqu89tL4LC_cru6Smij-4" value="Submit" style="html=1;whiteSpace=wrap;" vertex="1" parent="1">
          <mxGeometry x="795" y="520" width="370" height="50" as="geometry" />
        </mxCell>
        <mxCell id="phqu89tL4LC_cru6Smij-12" style="edgeStyle=orthogonalEdgeStyle;rounded=1;orthogonalLoop=1;jettySize=auto;html=1;entryX=0;entryY=0.5;entryDx=0;entryDy=0;curved=0;" edge="1" parent="1" source="phqu89tL4LC_cru6Smij-5" target="phqu89tL4LC_cru6Smij-2">
          <mxGeometry relative="1" as="geometry" />
        </mxCell>
        <mxCell id="phqu89tL4LC_cru6Smij-5" value="Provide more details (optional)" style="html=1;whiteSpace=wrap;" vertex="1" parent="1">
          <mxGeometry x="415" y="380" width="225" height="30" as="geometry" />
        </mxCell>
        <mxCell id="phqu89tL4LC_cru6Smij-6" value="Simplify form" style="html=1;whiteSpace=wrap;" vertex="1" parent="1">
          <mxGeometry x="1030" y="580" width="135" height="30" as="geometry" />
        </mxCell>
        <mxCell id="phqu89tL4LC_cru6Smij-7" value="name" style="html=1;whiteSpace=wrap;" vertex="1" parent="1">
          <mxGeometry x="795" y="320" width="175" height="50" as="geometry" />
        </mxCell>
        <mxCell id="phqu89tL4LC_cru6Smij-8" value="timezone" style="html=1;whiteSpace=wrap;" vertex="1" parent="1">
          <mxGeometry x="990" y="320" width="175" height="50" as="geometry" />
        </mxCell>
        <mxCell id="phqu89tL4LC_cru6Smij-11" value="Categories" style="html=1;whiteSpace=wrap;" vertex="1" parent="1">
          <mxGeometry x="797.5" y="385" width="365" height="120" as="geometry" />
        </mxCell>
      </root>
    </mxGraphModel>
  </diagram>
  <diagram id="BNtcXB0XgcxTEv95tQiX" name="RegistrationForm">
    <mxGraphModel dx="954" dy="516" grid="1" gridSize="10" guides="1" tooltips="1" connect="1" arrows="1" fold="1" page="1" pageScale="1" pageWidth="827" pageHeight="1169" math="0" shadow="0">
      <root>
        <mxCell id="0" />
        <mxCell id="1" parent="0" />
        <mxCell id="uuybItGgxRdqlYLrYFe6-1" value="RegistrationForm" style="html=1;whiteSpace=wrap;verticalAlign=top;fillColor=#dae8fc;strokeColor=#6c8ebf;" vertex="1" parent="1">
          <mxGeometry x="179" y="220" width="470" height="280" as="geometry" />
        </mxCell>
        <mxCell id="uuybItGgxRdqlYLrYFe6-2" value="name" style="html=1;whiteSpace=wrap;" vertex="1" parent="1">
          <mxGeometry x="200" y="300" width="200" height="45" as="geometry" />
        </mxCell>
        <mxCell id="uuybItGgxRdqlYLrYFe6-3" value="email" style="html=1;whiteSpace=wrap;" vertex="1" parent="1">
          <mxGeometry x="200" y="360" width="200" height="45" as="geometry" />
        </mxCell>
        <mxCell id="PCpPNsqeG7unonfDlBkk-1" value="password" style="html=1;whiteSpace=wrap;" vertex="1" parent="1">
          <mxGeometry x="430" y="360" width="200" height="45" as="geometry" />
        </mxCell>
        <mxCell id="PCpPNsqeG7unonfDlBkk-2" value="confirm password" style="html=1;whiteSpace=wrap;" vertex="1" parent="1">
          <mxGeometry x="430" y="420" width="200" height="45" as="geometry" />
        </mxCell>
        <mxCell id="PCpPNsqeG7unonfDlBkk-3" value="confirm email" style="html=1;whiteSpace=wrap;" vertex="1" parent="1">
          <mxGeometry x="200" y="420" width="200" height="45" as="geometry" />
        </mxCell>
        <mxCell id="PCpPNsqeG7unonfDlBkk-4" value="tel (optional)" style="html=1;whiteSpace=wrap;" vertex="1" parent="1">
          <mxGeometry x="430" y="300" width="200" height="45" as="geometry" />
        </mxCell>
      </root>
    </mxGraphModel>
  </diagram>
  <diagram id="rWcuCHIHT5JzIASbINEz" name="Overall System">
    <mxGraphModel dx="1778" dy="506" grid="1" gridSize="10" guides="1" tooltips="1" connect="1" arrows="1" fold="1" page="1" pageScale="1" pageWidth="827" pageHeight="1169" math="0" shadow="0">
      <root>
        <mxCell id="0" />
        <mxCell id="1" parent="0" />
        <mxCell id="D4Up9_Kkm7WDMdVXeVDs-1" value="&lt;div&gt;BBL Website&lt;/div&gt;(Laravel &amp;amp; React)" style="html=1;whiteSpace=wrap;fillColor=#f0a30a;fontColor=#000000;strokeColor=#BD7000;" vertex="1" parent="1">
          <mxGeometry x="320" y="250" width="150" height="50" as="geometry" />
        </mxCell>
        <mxCell id="D4Up9_Kkm7WDMdVXeVDs-2" value="&lt;div&gt;BBL Website DB&lt;/div&gt;&lt;div&gt;(maria DB)&lt;br&gt;&lt;/div&gt;" style="html=1;whiteSpace=wrap;fillColor=#dae8fc;strokeColor=#6c8ebf;" vertex="1" parent="1">
          <mxGeometry x="470" y="250" width="150" height="50" as="geometry" />
        </mxCell>
        <mxCell id="D4Up9_Kkm7WDMdVXeVDs-3" value="&lt;div&gt;BBL DAM&lt;br&gt;&lt;/div&gt;(PHP)" style="html=1;whiteSpace=wrap;fillColor=#f0a30a;fontColor=#000000;strokeColor=#BD7000;" vertex="1" parent="1">
          <mxGeometry x="-70" y="250" width="150" height="50" as="geometry" />
        </mxCell>
        <mxCell id="D4Up9_Kkm7WDMdVXeVDs-4" value="&lt;div&gt;BBL DAM DB&lt;/div&gt;&lt;div&gt;(maria DB)&lt;br&gt;&lt;/div&gt;" style="html=1;whiteSpace=wrap;fillColor=#dae8fc;strokeColor=#6c8ebf;" vertex="1" parent="1">
          <mxGeometry x="80" y="250" width="150" height="50" as="geometry" />
        </mxCell>
        <mxCell id="D4Up9_Kkm7WDMdVXeVDs-5" value="&lt;div&gt;BBL Staging Website&lt;br&gt;&lt;/div&gt;(Laravel &amp;amp; React)" style="html=1;whiteSpace=wrap;fillColor=#f0a30a;fontColor=#000000;strokeColor=#BD7000;" vertex="1" parent="1">
          <mxGeometry x="710" y="250" width="150" height="50" as="geometry" />
        </mxCell>
        <mxCell id="D4Up9_Kkm7WDMdVXeVDs-6" value="&lt;div&gt;BBL Staging Website DB&lt;/div&gt;&lt;div&gt;(maria DB)&lt;br&gt;&lt;/div&gt;" style="html=1;whiteSpace=wrap;fillColor=#dae8fc;strokeColor=#6c8ebf;" vertex="1" parent="1">
          <mxGeometry x="860" y="250" width="150" height="50" as="geometry" />
        </mxCell>
        <mxCell id="D4Up9_Kkm7WDMdVXeVDs-7" value="App" style="html=1;whiteSpace=wrap;fillColor=#f0a30a;strokeColor=#BD7000;fontColor=#000000;" vertex="1" parent="1">
          <mxGeometry x="-610" y="140" width="110" height="50" as="geometry" />
        </mxCell>
        <mxCell id="D4Up9_Kkm7WDMdVXeVDs-8" value="Database" style="html=1;whiteSpace=wrap;fillColor=#dae8fc;strokeColor=#6c8ebf;" vertex="1" parent="1">
          <mxGeometry x="-610" y="210" width="110" height="50" as="geometry" />
        </mxCell>
      </root>
    </mxGraphModel>
  </diagram>
</mxfile>
